(kicad_symbol_lib (version 20211014) (generator kicad_symbol_editor)
  (symbol "CP2102-GM" (pin_names (offset 1.016)) (in_bom yes) (on_board yes)
    (property "Reference" "U" (id 0) (at -12.954 18.3642 0)
      (effects (font (size 1.27 1.27)) (justify left bottom))
    )
    (property "Value" "CP2102-GM" (id 1) (at -13.1318 -17.3228 0)
      (effects (font (size 1.27 1.27)) (justify left bottom))
    )
    (property "Footprint" "QFN50P500X500X100-29N" (id 2) (at 0 0 0)
      (effects (font (size 1.27 1.27)) (justify left bottom) hide)
    )
    (property "Datasheet" "" (id 3) (at 0 0 0)
      (effects (font (size 1.27 1.27)) (justify left bottom) hide)
    )
    (property "MANUFACTURER" "Silicon Labs" (id 4) (at 0 0 0)
      (effects (font (size 1.27 1.27)) (justify left bottom) hide)
    )
    (property "MP" "CP2102-GM" (id 5) (at 0 0 0)
      (effects (font (size 1.27 1.27)) (justify left bottom) hide)
    )
    (property "PACKAGE" "QFN-28 Silicon Labs" (id 6) (at 0 0 0)
      (effects (font (size 1.27 1.27)) (justify left bottom) hide)
    )
    (property "PARTREV" "1.8" (id 7) (at 0 0 0)
      (effects (font (size 1.27 1.27)) (justify left bottom) hide)
    )
    (property "AVAILABILITY" "Good" (id 8) (at 0 0 0)
      (effects (font (size 1.27 1.27)) (justify left bottom) hide)
    )
    (property "STANDARD" "IPC-7351B" (id 9) (at 0 0 0)
      (effects (font (size 1.27 1.27)) (justify left bottom) hide)
    )
    (property "PRICE" "3.43 USD" (id 10) (at 0 0 0)
      (effects (font (size 1.27 1.27)) (justify left bottom) hide)
    )
    (property "DESCRIPTION" "IC USB-TO-UART BRIDGE 28VQFN" (id 11) (at 0 0 0)
      (effects (font (size 1.27 1.27)) (justify left bottom) hide)
    )
    (property "SNAPEDA_PACKAGE_ID" "11371" (id 12) (at 0 0 0)
      (effects (font (size 1.27 1.27)) (justify left bottom) hide)
    )
    (property "ki_locked" "" (id 13) (at 0 0 0)
      (effects (font (size 1.27 1.27)))
    )
    (symbol "CP2102-GM_0_0"
      (rectangle (start -12.7 -15.24) (end 12.7 17.78)
        (stroke (width 0.254) (type default) (color 0 0 0 0))
        (fill (type background))
      )
      (pin input line (at -17.78 10.16 0) (length 5.08)
        (name "~{DCD}" (effects (font (size 1.016 1.016))))
        (number "1" (effects (font (size 1.016 1.016))))
      )
      (pin output line (at 17.78 -7.62 180) (length 5.08)
        (name "~{SUSPEND}" (effects (font (size 1.016 1.016))))
        (number "11" (effects (font (size 1.016 1.016))))
      )
      (pin output line (at 17.78 -5.08 180) (length 5.08)
        (name "SUSPEND" (effects (font (size 1.016 1.016))))
        (number "12" (effects (font (size 1.016 1.016))))
      )
      (pin bidirectional line (at -17.78 -12.7 0) (length 5.08)
        (name "NC/VPP" (effects (font (size 1.016 1.016))))
        (number "18" (effects (font (size 1.016 1.016))))
      )
      (pin input line (at -17.78 7.62 0) (length 5.08)
        (name "~{RI}" (effects (font (size 1.016 1.016))))
        (number "2" (effects (font (size 1.016 1.016))))
      )
      (pin input line (at -17.78 0 0) (length 5.08)
        (name "~{CTS}" (effects (font (size 1.016 1.016))))
        (number "23" (effects (font (size 1.016 1.016))))
      )
      (pin output line (at 17.78 2.54 180) (length 5.08)
        (name "~{RTS}" (effects (font (size 1.016 1.016))))
        (number "24" (effects (font (size 1.016 1.016))))
      )
      (pin input line (at -17.78 2.54 0) (length 5.08)
        (name "RXD" (effects (font (size 1.016 1.016))))
        (number "25" (effects (font (size 1.016 1.016))))
      )
      (pin output line (at 17.78 5.08 180) (length 5.08)
        (name "TXD" (effects (font (size 1.016 1.016))))
        (number "26" (effects (font (size 1.016 1.016))))
      )
      (pin input line (at -17.78 -2.54 0) (length 5.08)
        (name "~{DSR}" (effects (font (size 1.016 1.016))))
        (number "27" (effects (font (size 1.016 1.016))))
      )
      (pin output line (at 17.78 0 180) (length 5.08)
        (name "~{DTR}" (effects (font (size 1.016 1.016))))
        (number "28" (effects (font (size 1.016 1.016))))
      )
      (pin power_in line (at 17.78 -12.7 180) (length 5.08)
        (name "GND" (effects (font (size 1.016 1.016))))
        (number "29" (effects (font (size 1.016 1.016))))
      )
      (pin power_in line (at 17.78 -12.7 180) (length 5.08)
        (name "GND" (effects (font (size 1.016 1.016))))
        (number "3" (effects (font (size 1.016 1.016))))
      )
      (pin bidirectional line (at -17.78 -7.62 0) (length 5.08)
        (name "D+" (effects (font (size 1.016 1.016))))
        (number "4" (effects (font (size 1.016 1.016))))
      )
      (pin bidirectional line (at -17.78 -10.16 0) (length 5.08)
        (name "D–" (effects (font (size 1.016 1.016))))
        (number "5" (effects (font (size 1.016 1.016))))
      )
      (pin power_in line (at 17.78 15.24 180) (length 5.08)
        (name "VDD" (effects (font (size 1.016 1.016))))
        (number "6" (effects (font (size 1.016 1.016))))
      )
      (pin power_in line (at 17.78 12.7 180) (length 5.08)
        (name "REGIN" (effects (font (size 1.016 1.016))))
        (number "7" (effects (font (size 1.016 1.016))))
      )
      (pin power_in line (at 17.78 10.16 180) (length 5.08)
        (name "VBUS" (effects (font (size 1.016 1.016))))
        (number "8" (effects (font (size 1.016 1.016))))
      )
      (pin bidirectional line (at -17.78 15.24 0) (length 5.08)
        (name "~{RST}" (effects (font (size 1.016 1.016))))
        (number "9" (effects (font (size 1.016 1.016))))
      )
    )
  )
)
