(kicad_symbol_lib (version 20211014) (generator kicad_symbol_editor)
  (symbol "MICROXNJ" (pin_names (offset 1.016)) (in_bom yes) (on_board yes)
    (property "Reference" "J" (id 0) (at -5.08 10.922 0)
      (effects (font (size 1.27 1.27)) (justify left bottom))
    )
    (property "Value" "MICROXNJ" (id 1) (at -5.08 -10.922 0)
      (effects (font (size 1.27 1.27)) (justify left bottom))
    )
    (property "Footprint" "SHOUHAN_MICROXNJ" (id 2) (at 0 0 0)
      (effects (font (size 1.27 1.27)) (justify left bottom) hide)
    )
    (property "Datasheet" "" (id 3) (at 0 0 0)
      (effects (font (size 1.27 1.27)) (justify left bottom) hide)
    )
    (property "STANDARD" "Manufacturer Recommendations" (id 4) (at 0 0 0)
      (effects (font (size 1.27 1.27)) (justify left bottom) hide)
    )
    (property "PARTREV" "A" (id 5) (at 0 0 0)
      (effects (font (size 1.27 1.27)) (justify left bottom) hide)
    )
    (property "MANUFACTURER" "SHOUHAN" (id 6) (at 0 0 0)
      (effects (font (size 1.27 1.27)) (justify left bottom) hide)
    )
    (property "MAXIMUM_PACKAGE_HEIGHT" "3mm" (id 7) (at 0 0 0)
      (effects (font (size 1.27 1.27)) (justify left bottom) hide)
    )
    (property "ki_locked" "" (id 8) (at 0 0 0)
      (effects (font (size 1.27 1.27)))
    )
    (symbol "MICROXNJ_0_0"
      (rectangle (start -5.08 -10.16) (end 5.08 10.16)
        (stroke (width 0.254) (type default) (color 0 0 0 0))
        (fill (type background))
      )
      (pin power_in line (at -10.16 7.62 0) (length 5.08)
        (name "VBUS" (effects (font (size 1.016 1.016))))
        (number "1" (effects (font (size 1.016 1.016))))
      )
      (pin bidirectional line (at -10.16 5.08 0) (length 5.08)
        (name "D-" (effects (font (size 1.016 1.016))))
        (number "2" (effects (font (size 1.016 1.016))))
      )
      (pin bidirectional line (at -10.16 2.54 0) (length 5.08)
        (name "D+" (effects (font (size 1.016 1.016))))
        (number "3" (effects (font (size 1.016 1.016))))
      )
      (pin bidirectional line (at -10.16 0 0) (length 5.08)
        (name "ID" (effects (font (size 1.016 1.016))))
        (number "4" (effects (font (size 1.016 1.016))))
      )
      (pin power_in line (at -10.16 -2.54 0) (length 5.08)
        (name "GND" (effects (font (size 1.016 1.016))))
        (number "5" (effects (font (size 1.016 1.016))))
      )
      (pin passive line (at -10.16 -7.62 0) (length 5.08)
        (name "SHIELD" (effects (font (size 1.016 1.016))))
        (number "S1" (effects (font (size 1.016 1.016))))
      )
      (pin passive line (at -10.16 -7.62 0) (length 5.08)
        (name "SHIELD" (effects (font (size 1.016 1.016))))
        (number "S2" (effects (font (size 1.016 1.016))))
      )
      (pin passive line (at -10.16 -7.62 0) (length 5.08)
        (name "SHIELD" (effects (font (size 1.016 1.016))))
        (number "S3" (effects (font (size 1.016 1.016))))
      )
      (pin passive line (at -10.16 -7.62 0) (length 5.08)
        (name "SHIELD" (effects (font (size 1.016 1.016))))
        (number "S4" (effects (font (size 1.016 1.016))))
      )
      (pin passive line (at -10.16 -7.62 0) (length 5.08)
        (name "SHIELD" (effects (font (size 1.016 1.016))))
        (number "S5" (effects (font (size 1.016 1.016))))
      )
      (pin passive line (at -10.16 -7.62 0) (length 5.08)
        (name "SHIELD" (effects (font (size 1.016 1.016))))
        (number "S6" (effects (font (size 1.016 1.016))))
      )
    )
  )
)
