(kicad_symbol_lib (version 20211014) (generator kicad_symbol_editor)
  (symbol "STPS745G" (pin_names (offset 1.016)) (in_bom yes) (on_board yes)
    (property "Reference" "D" (id 0) (at -2.3114 2.6416 0)
      (effects (font (size 1.27 1.27)) (justify left bottom))
    )
    (property "Value" "STPS745G" (id 1) (at -2.5654 -4.4958 0)
      (effects (font (size 1.27 1.27)) (justify left bottom))
    )
    (property "Footprint" "TO254P1543X460-3N" (id 2) (at 0 0 0)
      (effects (font (size 1.27 1.27)) (justify left bottom) hide)
    )
    (property "Datasheet" "" (id 3) (at 0 0 0)
      (effects (font (size 1.27 1.27)) (justify left bottom) hide)
    )
    (property "MANUFACTURER" "STMicroelectronics" (id 4) (at 0 0 0)
      (effects (font (size 1.27 1.27)) (justify left bottom) hide)
    )
    (property "ki_locked" "" (id 5) (at 0 0 0)
      (effects (font (size 1.27 1.27)))
    )
    (symbol "STPS745G_0_0"
      (polyline
        (pts
          (xy -1.27 -1.905)
          (xy 1.27 0)
        )
        (stroke (width 0.254) (type default) (color 0 0 0 0))
        (fill (type none))
      )
      (polyline
        (pts
          (xy -1.27 0)
          (xy -5.08 0)
        )
        (stroke (width 0.254) (type default) (color 0 0 0 0))
        (fill (type none))
      )
      (polyline
        (pts
          (xy -1.27 0)
          (xy -1.27 -1.905)
        )
        (stroke (width 0.254) (type default) (color 0 0 0 0))
        (fill (type none))
      )
      (polyline
        (pts
          (xy -1.27 1.905)
          (xy -1.27 0)
        )
        (stroke (width 0.254) (type default) (color 0 0 0 0))
        (fill (type none))
      )
      (polyline
        (pts
          (xy 1.27 0)
          (xy -1.27 1.905)
        )
        (stroke (width 0.254) (type default) (color 0 0 0 0))
        (fill (type none))
      )
      (polyline
        (pts
          (xy 1.27 0)
          (xy 5.08 0)
        )
        (stroke (width 0.254) (type default) (color 0 0 0 0))
        (fill (type none))
      )
      (polyline
        (pts
          (xy 1.397 1.905)
          (xy 1.397 -1.905)
        )
        (stroke (width 0.254) (type default) (color 0 0 0 0))
        (fill (type none))
      )
      (pin passive line (at -7.62 0 0) (length 2.54)
        (name "A" (effects (font (size 1.016 1.016))))
        (number "3" (effects (font (size 1.016 1.016))))
      )
      (pin passive line (at 7.62 0 180) (length 2.54)
        (name "C" (effects (font (size 1.016 1.016))))
        (number "4" (effects (font (size 1.016 1.016))))
      )
    )
  )
)
