(kicad_symbol_lib (version 20211014) (generator kicad_symbol_editor)
  (symbol "TEMT1020" (pin_numbers hide) (pin_names (offset 1.016) hide) (in_bom yes) (on_board yes)
    (property "Reference" "Q" (id 0) (at -10.16 5.08 0)
      (effects (font (size 1.27 1.27)) (justify left bottom))
    )
    (property "Value" "TEMT1020" (id 1) (at -10.16 -7.62 0)
      (effects (font (size 1.27 1.27)) (justify left bottom))
    )
    (property "Footprint" "XDCR_TEMT1020" (id 2) (at 0 0 0)
      (effects (font (size 1.27 1.27)) (justify left bottom) hide)
    )
    (property "Datasheet" "" (id 3) (at 0 0 0)
      (effects (font (size 1.27 1.27)) (justify left bottom) hide)
    )
    (property "MF" "Vishay Semiconductor" (id 4) (at 0 0 0)
      (effects (font (size 1.27 1.27)) (justify left bottom) hide)
    )
    (property "PACKAGE" "SMD-2 Vishay" (id 5) (at 0 0 0)
      (effects (font (size 1.27 1.27)) (justify left bottom) hide)
    )
    (property "ki_locked" "" (id 6) (at 0 0 0)
      (effects (font (size 1.27 1.27)))
    )
    (symbol "TEMT1020_0_0"
      (polyline
        (pts
          (xy -4.953 0.635)
          (xy -3.175 -1.143)
        )
        (stroke (width 0.1524) (type default) (color 0 0 0 0))
        (fill (type none))
      )
      (polyline
        (pts
          (xy -4.953 2.54)
          (xy -3.175 0.762)
        )
        (stroke (width 0.1524) (type default) (color 0 0 0 0))
        (fill (type none))
      )
      (polyline
        (pts
          (xy -4.318 -0.762)
          (xy -3.556 0)
        )
        (stroke (width 0.1524) (type default) (color 0 0 0 0))
        (fill (type none))
      )
      (polyline
        (pts
          (xy -4.318 1.143)
          (xy -3.556 1.905)
        )
        (stroke (width 0.1524) (type default) (color 0 0 0 0))
        (fill (type none))
      )
      (polyline
        (pts
          (xy -3.556 0)
          (xy -3.175 -1.143)
        )
        (stroke (width 0.1524) (type default) (color 0 0 0 0))
        (fill (type none))
      )
      (polyline
        (pts
          (xy -3.556 1.905)
          (xy -3.175 0.762)
        )
        (stroke (width 0.1524) (type default) (color 0 0 0 0))
        (fill (type none))
      )
      (polyline
        (pts
          (xy -3.175 -1.143)
          (xy -4.318 -0.762)
        )
        (stroke (width 0.1524) (type default) (color 0 0 0 0))
        (fill (type none))
      )
      (polyline
        (pts
          (xy -3.175 0.762)
          (xy -4.318 1.143)
        )
        (stroke (width 0.1524) (type default) (color 0 0 0 0))
        (fill (type none))
      )
      (polyline
        (pts
          (xy 0 -0.635)
          (xy 0 -1.905)
        )
        (stroke (width 0.254) (type default) (color 0 0 0 0))
        (fill (type none))
      )
      (polyline
        (pts
          (xy 0 -0.635)
          (xy 2.54 -2.54)
        )
        (stroke (width 0.254) (type default) (color 0 0 0 0))
        (fill (type none))
      )
      (polyline
        (pts
          (xy 0 0.635)
          (xy 0 -0.635)
        )
        (stroke (width 0.254) (type default) (color 0 0 0 0))
        (fill (type none))
      )
      (polyline
        (pts
          (xy 0 0.635)
          (xy 2.54 2.54)
        )
        (stroke (width 0.254) (type default) (color 0 0 0 0))
        (fill (type none))
      )
      (polyline
        (pts
          (xy 0 1.905)
          (xy 0 0.635)
        )
        (stroke (width 0.254) (type default) (color 0 0 0 0))
        (fill (type none))
      )
      (polyline
        (pts
          (xy 2.286 -2.286)
          (xy 2.54 -2.54)
        )
        (stroke (width 0.1524) (type default) (color 0 0 0 0))
        (fill (type none))
      )
      (polyline
        (pts
          (xy -4.318 -0.762)
          (xy -3.175 -1.143)
          (xy -3.556 0)
          (xy -4.318 -0.762)
        )
        (stroke (width 0.1524) (type default) (color 0 0 0 0))
        (fill (type background))
      )
      (polyline
        (pts
          (xy -4.318 1.143)
          (xy -3.175 0.762)
          (xy -3.556 1.905)
          (xy -4.318 1.143)
        )
        (stroke (width 0.1524) (type default) (color 0 0 0 0))
        (fill (type background))
      )
      (polyline
        (pts
          (xy 2.54 -2.54)
          (xy 2.286 -1.524)
          (xy 1.524 -2.54)
          (xy 2.54 -2.54)
        )
        (stroke (width 0.254) (type default) (color 0 0 0 0))
        (fill (type background))
      )
      (circle (center 1.27 0) (radius 3.175)
        (stroke (width 0.254) (type default) (color 0 0 0 0))
        (fill (type none))
      )
      (pin passive line (at 2.54 5.08 270) (length 2.54)
        (name "~" (effects (font (size 1.016 1.016))))
        (number "C" (effects (font (size 1.016 1.016))))
      )
      (pin passive line (at 2.54 -5.08 90) (length 2.54)
        (name "~" (effects (font (size 1.016 1.016))))
        (number "E" (effects (font (size 1.016 1.016))))
      )
    )
  )
)
