(kicad_sch (version 20211123) (generator eeschema)

  (uuid 00318b70-98db-4150-aae9-0fe9db9b4f56)

  (paper "A4")

  (title_block
    (title "Power Submodule")
    (date "2022-04-06")
    (rev "v3")
    (company "University of Cape Town")
    (comment 1 "Author: Omolemo Kegakilwe")
    (comment 2 "Team: Group 32")
  )

  (lib_symbols
    (symbol "AO3401A:AO3401A" (pin_numbers hide) (pin_names (offset 1.016) hide) (in_bom yes) (on_board yes)
      (property "Reference" "Q" (id 0) (at -13.97 -1.27 0)
        (effects (font (size 1.27 1.27)) (justify left bottom))
      )
      (property "Value" "AO3401A" (id 1) (at -13.97 -3.81 0)
        (effects (font (size 1.27 1.27)) (justify left bottom))
      )
      (property "Footprint" "SOT23-3" (id 2) (at 0 0 0)
        (effects (font (size 1.27 1.27)) (justify left bottom) hide)
      )
      (property "Datasheet" "" (id 3) (at 0 0 0)
        (effects (font (size 1.27 1.27)) (justify left bottom) hide)
      )
      (property "ki_locked" "" (id 4) (at 0 0 0)
        (effects (font (size 1.27 1.27)))
      )
      (symbol "AO3401A_0_0"
        (circle (center 0 -2.54) (radius 0.3556)
          (stroke (width 0) (type default) (color 0 0 0 0))
          (fill (type none))
        )
        (polyline
          (pts
            (xy -2.54 -2.54)
            (xy -2.54 2.54)
          )
          (stroke (width 0.254) (type default) (color 0 0 0 0))
          (fill (type none))
        )
        (polyline
          (pts
            (xy -1.778 -3.175)
            (xy -1.778 -2.54)
          )
          (stroke (width 0.254) (type default) (color 0 0 0 0))
          (fill (type none))
        )
        (polyline
          (pts
            (xy -1.778 -2.54)
            (xy -1.778 -1.905)
          )
          (stroke (width 0.254) (type default) (color 0 0 0 0))
          (fill (type none))
        )
        (polyline
          (pts
            (xy -1.778 -2.54)
            (xy 1.27 -2.54)
          )
          (stroke (width 0.1524) (type default) (color 0 0 0 0))
          (fill (type none))
        )
        (polyline
          (pts
            (xy -1.778 -0.762)
            (xy -1.778 0)
          )
          (stroke (width 0.254) (type default) (color 0 0 0 0))
          (fill (type none))
        )
        (polyline
          (pts
            (xy -1.778 0)
            (xy -1.778 0.762)
          )
          (stroke (width 0.254) (type default) (color 0 0 0 0))
          (fill (type none))
        )
        (polyline
          (pts
            (xy -1.778 0)
            (xy 0 0)
          )
          (stroke (width 0.1524) (type default) (color 0 0 0 0))
          (fill (type none))
        )
        (polyline
          (pts
            (xy -1.778 1.905)
            (xy -1.778 2.54)
          )
          (stroke (width 0.254) (type default) (color 0 0 0 0))
          (fill (type none))
        )
        (polyline
          (pts
            (xy -1.778 2.54)
            (xy -1.778 3.175)
          )
          (stroke (width 0.254) (type default) (color 0 0 0 0))
          (fill (type none))
        )
        (polyline
          (pts
            (xy 0 0)
            (xy 0 2.54)
          )
          (stroke (width 0.1524) (type default) (color 0 0 0 0))
          (fill (type none))
        )
        (polyline
          (pts
            (xy 0 2.54)
            (xy -1.778 2.54)
          )
          (stroke (width 0.1524) (type default) (color 0 0 0 0))
          (fill (type none))
        )
        (polyline
          (pts
            (xy 0 2.54)
            (xy 1.27 2.54)
          )
          (stroke (width 0.1524) (type default) (color 0 0 0 0))
          (fill (type none))
        )
        (polyline
          (pts
            (xy 0.508 0.762)
            (xy 0.762 0.508)
          )
          (stroke (width 0.1524) (type default) (color 0 0 0 0))
          (fill (type none))
        )
        (polyline
          (pts
            (xy 0.762 0.508)
            (xy 1.27 0.508)
          )
          (stroke (width 0.1524) (type default) (color 0 0 0 0))
          (fill (type none))
        )
        (polyline
          (pts
            (xy 1.27 -2.54)
            (xy 1.27 0.508)
          )
          (stroke (width 0.1524) (type default) (color 0 0 0 0))
          (fill (type none))
        )
        (polyline
          (pts
            (xy 1.27 0.508)
            (xy 1.27 2.54)
          )
          (stroke (width 0.1524) (type default) (color 0 0 0 0))
          (fill (type none))
        )
        (polyline
          (pts
            (xy 1.27 0.508)
            (xy 1.778 0.508)
          )
          (stroke (width 0.1524) (type default) (color 0 0 0 0))
          (fill (type none))
        )
        (polyline
          (pts
            (xy 1.778 0.508)
            (xy 2.032 0.254)
          )
          (stroke (width 0.1524) (type default) (color 0 0 0 0))
          (fill (type none))
        )
        (polyline
          (pts
            (xy 0 0)
            (xy -1.016 0.762)
            (xy -1.016 -0.762)
            (xy 0 0)
          )
          (stroke (width 0.1524) (type default) (color 0 0 0 0))
          (fill (type background))
        )
        (polyline
          (pts
            (xy 1.27 0.508)
            (xy 1.778 -0.254)
            (xy 0.762 -0.254)
            (xy 1.27 0.508)
          )
          (stroke (width 0.1524) (type default) (color 0 0 0 0))
          (fill (type background))
        )
        (circle (center 0 2.54) (radius 0.3556)
          (stroke (width 0) (type default) (color 0 0 0 0))
          (fill (type none))
        )
        (pin passive line (at -5.08 2.54 0) (length 2.54)
          (name "~" (effects (font (size 1.016 1.016))))
          (number "1" (effects (font (size 1.016 1.016))))
        )
        (pin passive line (at 0 5.08 270) (length 2.54)
          (name "~" (effects (font (size 1.016 1.016))))
          (number "2" (effects (font (size 1.016 1.016))))
        )
        (pin passive line (at 0 -5.08 90) (length 2.54)
          (name "~" (effects (font (size 1.016 1.016))))
          (number "3" (effects (font (size 1.016 1.016))))
        )
      )
    )
    (symbol "Battery_Management:MCP73831-2-OT" (pin_names (offset 1.016)) (in_bom yes) (on_board yes)
      (property "Reference" "U" (id 0) (at -7.62 6.35 0)
        (effects (font (size 1.27 1.27)) (justify left))
      )
      (property "Value" "MCP73831-2-OT" (id 1) (at 1.27 6.35 0)
        (effects (font (size 1.27 1.27)) (justify left))
      )
      (property "Footprint" "Package_TO_SOT_SMD:SOT-23-5" (id 2) (at 1.27 -6.35 0)
        (effects (font (size 1.27 1.27) italic) (justify left) hide)
      )
      (property "Datasheet" "http://ww1.microchip.com/downloads/en/DeviceDoc/20001984g.pdf" (id 3) (at -3.81 -1.27 0)
        (effects (font (size 1.27 1.27)) hide)
      )
      (property "ki_keywords" "battery charger lithium" (id 4) (at 0 0 0)
        (effects (font (size 1.27 1.27)) hide)
      )
      (property "ki_description" "Single cell, Li-Ion/Li-Po charge management controller, 4.20V, Tri-State Status Output, in SOT23-5 package" (id 5) (at 0 0 0)
        (effects (font (size 1.27 1.27)) hide)
      )
      (property "ki_fp_filters" "SOT?23*" (id 6) (at 0 0 0)
        (effects (font (size 1.27 1.27)) hide)
      )
      (symbol "MCP73831-2-OT_0_1"
        (rectangle (start -7.62 5.08) (end 7.62 -5.08)
          (stroke (width 0.254) (type default) (color 0 0 0 0))
          (fill (type background))
        )
      )
      (symbol "MCP73831-2-OT_1_1"
        (pin output line (at 10.16 -2.54 180) (length 2.54)
          (name "STAT" (effects (font (size 1.27 1.27))))
          (number "1" (effects (font (size 1.27 1.27))))
        )
        (pin power_in line (at 0 -7.62 90) (length 2.54)
          (name "VSS" (effects (font (size 1.27 1.27))))
          (number "2" (effects (font (size 1.27 1.27))))
        )
        (pin power_out line (at 10.16 2.54 180) (length 2.54)
          (name "VBAT" (effects (font (size 1.27 1.27))))
          (number "3" (effects (font (size 1.27 1.27))))
        )
        (pin power_in line (at 0 7.62 270) (length 2.54)
          (name "VDD" (effects (font (size 1.27 1.27))))
          (number "4" (effects (font (size 1.27 1.27))))
        )
        (pin input line (at -10.16 -2.54 0) (length 2.54)
          (name "PROG" (effects (font (size 1.27 1.27))))
          (number "5" (effects (font (size 1.27 1.27))))
        )
      )
    )
    (symbol "Connector:TestPoint" (pin_numbers hide) (pin_names (offset 0.762) hide) (in_bom yes) (on_board yes)
      (property "Reference" "TP" (id 0) (at 0 6.858 0)
        (effects (font (size 1.27 1.27)))
      )
      (property "Value" "TestPoint" (id 1) (at 0 5.08 0)
        (effects (font (size 1.27 1.27)))
      )
      (property "Footprint" "" (id 2) (at 5.08 0 0)
        (effects (font (size 1.27 1.27)) hide)
      )
      (property "Datasheet" "~" (id 3) (at 5.08 0 0)
        (effects (font (size 1.27 1.27)) hide)
      )
      (property "ki_keywords" "test point tp" (id 4) (at 0 0 0)
        (effects (font (size 1.27 1.27)) hide)
      )
      (property "ki_description" "test point" (id 5) (at 0 0 0)
        (effects (font (size 1.27 1.27)) hide)
      )
      (property "ki_fp_filters" "Pin* Test*" (id 6) (at 0 0 0)
        (effects (font (size 1.27 1.27)) hide)
      )
      (symbol "TestPoint_0_1"
        (circle (center 0 3.302) (radius 0.762)
          (stroke (width 0) (type default) (color 0 0 0 0))
          (fill (type none))
        )
      )
      (symbol "TestPoint_1_1"
        (pin passive line (at 0 0 90) (length 2.54)
          (name "1" (effects (font (size 1.27 1.27))))
          (number "1" (effects (font (size 1.27 1.27))))
        )
      )
    )
    (symbol "Device:Battery_Cell" (pin_numbers hide) (pin_names (offset 0) hide) (in_bom yes) (on_board yes)
      (property "Reference" "BT" (id 0) (at 2.54 2.54 0)
        (effects (font (size 1.27 1.27)) (justify left))
      )
      (property "Value" "Battery_Cell" (id 1) (at 2.54 0 0)
        (effects (font (size 1.27 1.27)) (justify left))
      )
      (property "Footprint" "" (id 2) (at 0 1.524 90)
        (effects (font (size 1.27 1.27)) hide)
      )
      (property "Datasheet" "~" (id 3) (at 0 1.524 90)
        (effects (font (size 1.27 1.27)) hide)
      )
      (property "ki_keywords" "battery cell" (id 4) (at 0 0 0)
        (effects (font (size 1.27 1.27)) hide)
      )
      (property "ki_description" "Single-cell battery" (id 5) (at 0 0 0)
        (effects (font (size 1.27 1.27)) hide)
      )
      (symbol "Battery_Cell_0_1"
        (rectangle (start -2.286 1.778) (end 2.286 1.524)
          (stroke (width 0) (type default) (color 0 0 0 0))
          (fill (type outline))
        )
        (rectangle (start -1.5748 1.1938) (end 1.4732 0.6858)
          (stroke (width 0) (type default) (color 0 0 0 0))
          (fill (type outline))
        )
        (polyline
          (pts
            (xy 0 0.762)
            (xy 0 0)
          )
          (stroke (width 0) (type default) (color 0 0 0 0))
          (fill (type none))
        )
        (polyline
          (pts
            (xy 0 1.778)
            (xy 0 2.54)
          )
          (stroke (width 0) (type default) (color 0 0 0 0))
          (fill (type none))
        )
        (polyline
          (pts
            (xy 0.508 3.429)
            (xy 1.524 3.429)
          )
          (stroke (width 0.254) (type default) (color 0 0 0 0))
          (fill (type none))
        )
        (polyline
          (pts
            (xy 1.016 3.937)
            (xy 1.016 2.921)
          )
          (stroke (width 0.254) (type default) (color 0 0 0 0))
          (fill (type none))
        )
      )
      (symbol "Battery_Cell_1_1"
        (pin passive line (at 0 5.08 270) (length 2.54)
          (name "+" (effects (font (size 1.27 1.27))))
          (number "1" (effects (font (size 1.27 1.27))))
        )
        (pin passive line (at 0 -2.54 90) (length 2.54)
          (name "-" (effects (font (size 1.27 1.27))))
          (number "2" (effects (font (size 1.27 1.27))))
        )
      )
    )
    (symbol "Device:C" (pin_numbers hide) (pin_names (offset 0.254)) (in_bom yes) (on_board yes)
      (property "Reference" "C" (id 0) (at 0.635 2.54 0)
        (effects (font (size 1.27 1.27)) (justify left))
      )
      (property "Value" "C" (id 1) (at 0.635 -2.54 0)
        (effects (font (size 1.27 1.27)) (justify left))
      )
      (property "Footprint" "" (id 2) (at 0.9652 -3.81 0)
        (effects (font (size 1.27 1.27)) hide)
      )
      (property "Datasheet" "~" (id 3) (at 0 0 0)
        (effects (font (size 1.27 1.27)) hide)
      )
      (property "ki_keywords" "cap capacitor" (id 4) (at 0 0 0)
        (effects (font (size 1.27 1.27)) hide)
      )
      (property "ki_description" "Unpolarized capacitor" (id 5) (at 0 0 0)
        (effects (font (size 1.27 1.27)) hide)
      )
      (property "ki_fp_filters" "C_*" (id 6) (at 0 0 0)
        (effects (font (size 1.27 1.27)) hide)
      )
      (symbol "C_0_1"
        (polyline
          (pts
            (xy -2.032 -0.762)
            (xy 2.032 -0.762)
          )
          (stroke (width 0.508) (type default) (color 0 0 0 0))
          (fill (type none))
        )
        (polyline
          (pts
            (xy -2.032 0.762)
            (xy 2.032 0.762)
          )
          (stroke (width 0.508) (type default) (color 0 0 0 0))
          (fill (type none))
        )
      )
      (symbol "C_1_1"
        (pin passive line (at 0 3.81 270) (length 2.794)
          (name "~" (effects (font (size 1.27 1.27))))
          (number "1" (effects (font (size 1.27 1.27))))
        )
        (pin passive line (at 0 -3.81 90) (length 2.794)
          (name "~" (effects (font (size 1.27 1.27))))
          (number "2" (effects (font (size 1.27 1.27))))
        )
      )
    )
    (symbol "Device:C_Polarized_Small_US" (pin_numbers hide) (pin_names (offset 0.254) hide) (in_bom yes) (on_board yes)
      (property "Reference" "C" (id 0) (at 0.254 1.778 0)
        (effects (font (size 1.27 1.27)) (justify left))
      )
      (property "Value" "C_Polarized_Small_US" (id 1) (at 0.254 -2.032 0)
        (effects (font (size 1.27 1.27)) (justify left))
      )
      (property "Footprint" "" (id 2) (at 0 0 0)
        (effects (font (size 1.27 1.27)) hide)
      )
      (property "Datasheet" "~" (id 3) (at 0 0 0)
        (effects (font (size 1.27 1.27)) hide)
      )
      (property "ki_keywords" "cap capacitor" (id 4) (at 0 0 0)
        (effects (font (size 1.27 1.27)) hide)
      )
      (property "ki_description" "Polarized capacitor, small US symbol" (id 5) (at 0 0 0)
        (effects (font (size 1.27 1.27)) hide)
      )
      (property "ki_fp_filters" "CP_*" (id 6) (at 0 0 0)
        (effects (font (size 1.27 1.27)) hide)
      )
      (symbol "C_Polarized_Small_US_0_1"
        (polyline
          (pts
            (xy -1.524 0.508)
            (xy 1.524 0.508)
          )
          (stroke (width 0.3048) (type default) (color 0 0 0 0))
          (fill (type none))
        )
        (polyline
          (pts
            (xy -1.27 1.524)
            (xy -0.762 1.524)
          )
          (stroke (width 0) (type default) (color 0 0 0 0))
          (fill (type none))
        )
        (polyline
          (pts
            (xy -1.016 1.27)
            (xy -1.016 1.778)
          )
          (stroke (width 0) (type default) (color 0 0 0 0))
          (fill (type none))
        )
        (arc (start 1.524 -0.762) (mid 0 -0.3734) (end -1.524 -0.762)
          (stroke (width 0.3048) (type default) (color 0 0 0 0))
          (fill (type none))
        )
      )
      (symbol "C_Polarized_Small_US_1_1"
        (pin passive line (at 0 2.54 270) (length 2.032)
          (name "~" (effects (font (size 1.27 1.27))))
          (number "1" (effects (font (size 1.27 1.27))))
        )
        (pin passive line (at 0 -2.54 90) (length 2.032)
          (name "~" (effects (font (size 1.27 1.27))))
          (number "2" (effects (font (size 1.27 1.27))))
        )
      )
    )
    (symbol "Device:R" (pin_numbers hide) (pin_names (offset 0)) (in_bom yes) (on_board yes)
      (property "Reference" "R" (id 0) (at 2.032 0 90)
        (effects (font (size 1.27 1.27)))
      )
      (property "Value" "R" (id 1) (at 0 0 90)
        (effects (font (size 1.27 1.27)))
      )
      (property "Footprint" "" (id 2) (at -1.778 0 90)
        (effects (font (size 1.27 1.27)) hide)
      )
      (property "Datasheet" "~" (id 3) (at 0 0 0)
        (effects (font (size 1.27 1.27)) hide)
      )
      (property "ki_keywords" "R res resistor" (id 4) (at 0 0 0)
        (effects (font (size 1.27 1.27)) hide)
      )
      (property "ki_description" "Resistor" (id 5) (at 0 0 0)
        (effects (font (size 1.27 1.27)) hide)
      )
      (property "ki_fp_filters" "R_*" (id 6) (at 0 0 0)
        (effects (font (size 1.27 1.27)) hide)
      )
      (symbol "R_0_1"
        (rectangle (start -1.016 -2.54) (end 1.016 2.54)
          (stroke (width 0.254) (type default) (color 0 0 0 0))
          (fill (type none))
        )
      )
      (symbol "R_1_1"
        (pin passive line (at 0 3.81 270) (length 1.27)
          (name "~" (effects (font (size 1.27 1.27))))
          (number "1" (effects (font (size 1.27 1.27))))
        )
        (pin passive line (at 0 -3.81 90) (length 1.27)
          (name "~" (effects (font (size 1.27 1.27))))
          (number "2" (effects (font (size 1.27 1.27))))
        )
      )
    )
    (symbol "MAX1627ESA:MAX1627ESA" (pin_names (offset 1.016)) (in_bom yes) (on_board yes)
      (property "Reference" "U" (id 0) (at -17.78 16.2306 0)
        (effects (font (size 1.27 1.27)) (justify left bottom))
      )
      (property "Value" "MAX1627ESA" (id 1) (at -17.78 -19.2278 0)
        (effects (font (size 1.27 1.27)) (justify left bottom))
      )
      (property "Footprint" "SOIC127P600X175-8N" (id 2) (at 0 0 0)
        (effects (font (size 1.27 1.27)) (justify left bottom) hide)
      )
      (property "Datasheet" "" (id 3) (at 0 0 0)
        (effects (font (size 1.27 1.27)) (justify left bottom) hide)
      )
      (property "Manufacturer" "Maxim Integrated" (id 4) (at 0 0 0)
        (effects (font (size 1.27 1.27)) (justify left bottom) hide)
      )
      (property "Package" "SOIC127P600X175-8N" (id 5) (at 0 0 0)
        (effects (font (size 1.27 1.27)) (justify left bottom) hide)
      )
      (property "ki_locked" "" (id 6) (at 0 0 0)
        (effects (font (size 1.27 1.27)))
      )
      (symbol "MAX1627ESA_0_0"
        (rectangle (start -17.78 -15.24) (end 17.78 15.24)
          (stroke (width 0.4064) (type default) (color 0 0 0 0))
          (fill (type background))
        )
        (pin output line (at 22.86 7.62 180) (length 5.08)
          (name "OUT" (effects (font (size 1.016 1.016))))
          (number "1" (effects (font (size 1.016 1.016))))
        )
        (pin bidirectional line (at -22.86 -2.54 0) (length 5.08)
          (name "FB" (effects (font (size 1.016 1.016))))
          (number "2" (effects (font (size 1.016 1.016))))
        )
        (pin bidirectional line (at -22.86 -5.08 0) (length 5.08)
          (name "SHDN" (effects (font (size 1.016 1.016))))
          (number "3" (effects (font (size 1.016 1.016))))
        )
        (pin input line (at -22.86 7.62 0) (length 5.08)
          (name "REF" (effects (font (size 1.016 1.016))))
          (number "4" (effects (font (size 1.016 1.016))))
        )
        (pin power_in line (at 22.86 12.7 180) (length 5.08)
          (name "V+" (effects (font (size 1.016 1.016))))
          (number "5" (effects (font (size 1.016 1.016))))
        )
        (pin bidirectional line (at -22.86 2.54 0) (length 5.08)
          (name "CS" (effects (font (size 1.016 1.016))))
          (number "6" (effects (font (size 1.016 1.016))))
        )
        (pin bidirectional line (at -22.86 0 0) (length 5.08)
          (name "EXT" (effects (font (size 1.016 1.016))))
          (number "7" (effects (font (size 1.016 1.016))))
        )
        (pin power_in line (at 22.86 -10.16 180) (length 5.08)
          (name "GND" (effects (font (size 1.016 1.016))))
          (number "8" (effects (font (size 1.016 1.016))))
        )
      )
    )
    (symbol "STPS745G:STPS745G" (pin_names (offset 1.016)) (in_bom yes) (on_board yes)
      (property "Reference" "D" (id 0) (at -2.3114 2.6416 0)
        (effects (font (size 1.27 1.27)) (justify left bottom))
      )
      (property "Value" "STPS745G" (id 1) (at -2.5654 -4.4958 0)
        (effects (font (size 1.27 1.27)) (justify left bottom))
      )
      (property "Footprint" "TO254P1543X460-3N" (id 2) (at 0 0 0)
        (effects (font (size 1.27 1.27)) (justify left bottom) hide)
      )
      (property "Datasheet" "" (id 3) (at 0 0 0)
        (effects (font (size 1.27 1.27)) (justify left bottom) hide)
      )
      (property "MANUFACTURER" "STMicroelectronics" (id 4) (at 0 0 0)
        (effects (font (size 1.27 1.27)) (justify left bottom) hide)
      )
      (property "ki_locked" "" (id 5) (at 0 0 0)
        (effects (font (size 1.27 1.27)))
      )
      (symbol "STPS745G_0_0"
        (polyline
          (pts
            (xy -1.27 -1.905)
            (xy 1.27 0)
          )
          (stroke (width 0.254) (type default) (color 0 0 0 0))
          (fill (type none))
        )
        (polyline
          (pts
            (xy -1.27 0)
            (xy -5.08 0)
          )
          (stroke (width 0.254) (type default) (color 0 0 0 0))
          (fill (type none))
        )
        (polyline
          (pts
            (xy -1.27 0)
            (xy -1.27 -1.905)
          )
          (stroke (width 0.254) (type default) (color 0 0 0 0))
          (fill (type none))
        )
        (polyline
          (pts
            (xy -1.27 1.905)
            (xy -1.27 0)
          )
          (stroke (width 0.254) (type default) (color 0 0 0 0))
          (fill (type none))
        )
        (polyline
          (pts
            (xy 1.27 0)
            (xy -1.27 1.905)
          )
          (stroke (width 0.254) (type default) (color 0 0 0 0))
          (fill (type none))
        )
        (polyline
          (pts
            (xy 1.27 0)
            (xy 5.08 0)
          )
          (stroke (width 0.254) (type default) (color 0 0 0 0))
          (fill (type none))
        )
        (polyline
          (pts
            (xy 1.397 1.905)
            (xy 1.397 -1.905)
          )
          (stroke (width 0.254) (type default) (color 0 0 0 0))
          (fill (type none))
        )
        (pin passive line (at -7.62 0 0) (length 2.54)
          (name "A" (effects (font (size 1.016 1.016))))
          (number "3" (effects (font (size 1.016 1.016))))
        )
        (pin passive line (at 7.62 0 180) (length 2.54)
          (name "C" (effects (font (size 1.016 1.016))))
          (number "4" (effects (font (size 1.016 1.016))))
        )
      )
    )
    (symbol "power:GND" (power) (pin_names (offset 0)) (in_bom yes) (on_board yes)
      (property "Reference" "#PWR" (id 0) (at 0 -6.35 0)
        (effects (font (size 1.27 1.27)) hide)
      )
      (property "Value" "GND" (id 1) (at 0 -3.81 0)
        (effects (font (size 1.27 1.27)))
      )
      (property "Footprint" "" (id 2) (at 0 0 0)
        (effects (font (size 1.27 1.27)) hide)
      )
      (property "Datasheet" "" (id 3) (at 0 0 0)
        (effects (font (size 1.27 1.27)) hide)
      )
      (property "ki_keywords" "power-flag" (id 4) (at 0 0 0)
        (effects (font (size 1.27 1.27)) hide)
      )
      (property "ki_description" "Power symbol creates a global label with name \"GND\" , ground" (id 5) (at 0 0 0)
        (effects (font (size 1.27 1.27)) hide)
      )
      (symbol "GND_0_1"
        (polyline
          (pts
            (xy 0 0)
            (xy 0 -1.27)
            (xy 1.27 -1.27)
            (xy 0 -2.54)
            (xy -1.27 -1.27)
            (xy 0 -1.27)
          )
          (stroke (width 0) (type default) (color 0 0 0 0))
          (fill (type none))
        )
      )
      (symbol "GND_1_1"
        (pin power_in line (at 0 0 270) (length 0) hide
          (name "GND" (effects (font (size 1.27 1.27))))
          (number "1" (effects (font (size 1.27 1.27))))
        )
      )
    )
    (symbol "power:GNDPWR" (power) (pin_names (offset 0)) (in_bom yes) (on_board yes)
      (property "Reference" "#PWR" (id 0) (at 0 -5.08 0)
        (effects (font (size 1.27 1.27)) hide)
      )
      (property "Value" "GNDPWR" (id 1) (at 0 -3.302 0)
        (effects (font (size 1.27 1.27)))
      )
      (property "Footprint" "" (id 2) (at 0 -1.27 0)
        (effects (font (size 1.27 1.27)) hide)
      )
      (property "Datasheet" "" (id 3) (at 0 -1.27 0)
        (effects (font (size 1.27 1.27)) hide)
      )
      (property "ki_keywords" "power-flag" (id 4) (at 0 0 0)
        (effects (font (size 1.27 1.27)) hide)
      )
      (property "ki_description" "Power symbol creates a global label with name \"GNDPWR\" , power ground" (id 5) (at 0 0 0)
        (effects (font (size 1.27 1.27)) hide)
      )
      (symbol "GNDPWR_0_1"
        (polyline
          (pts
            (xy 0 -1.27)
            (xy 0 0)
          )
          (stroke (width 0) (type default) (color 0 0 0 0))
          (fill (type none))
        )
        (polyline
          (pts
            (xy -1.016 -1.27)
            (xy -1.27 -2.032)
            (xy -1.27 -2.032)
          )
          (stroke (width 0.2032) (type default) (color 0 0 0 0))
          (fill (type none))
        )
        (polyline
          (pts
            (xy -0.508 -1.27)
            (xy -0.762 -2.032)
            (xy -0.762 -2.032)
          )
          (stroke (width 0.2032) (type default) (color 0 0 0 0))
          (fill (type none))
        )
        (polyline
          (pts
            (xy 0 -1.27)
            (xy -0.254 -2.032)
            (xy -0.254 -2.032)
          )
          (stroke (width 0.2032) (type default) (color 0 0 0 0))
          (fill (type none))
        )
        (polyline
          (pts
            (xy 0.508 -1.27)
            (xy 0.254 -2.032)
            (xy 0.254 -2.032)
          )
          (stroke (width 0.2032) (type default) (color 0 0 0 0))
          (fill (type none))
        )
        (polyline
          (pts
            (xy 1.016 -1.27)
            (xy -1.016 -1.27)
            (xy -1.016 -1.27)
          )
          (stroke (width 0.2032) (type default) (color 0 0 0 0))
          (fill (type none))
        )
        (polyline
          (pts
            (xy 1.016 -1.27)
            (xy 0.762 -2.032)
            (xy 0.762 -2.032)
            (xy 0.762 -2.032)
          )
          (stroke (width 0.2032) (type default) (color 0 0 0 0))
          (fill (type none))
        )
      )
      (symbol "GNDPWR_1_1"
        (pin power_in line (at 0 0 270) (length 0) hide
          (name "GNDPWR" (effects (font (size 1.27 1.27))))
          (number "1" (effects (font (size 1.27 1.27))))
        )
      )
    )
    (symbol "power:PWR_FLAG" (power) (pin_numbers hide) (pin_names (offset 0) hide) (in_bom yes) (on_board yes)
      (property "Reference" "#FLG" (id 0) (at 0 1.905 0)
        (effects (font (size 1.27 1.27)) hide)
      )
      (property "Value" "PWR_FLAG" (id 1) (at 0 3.81 0)
        (effects (font (size 1.27 1.27)))
      )
      (property "Footprint" "" (id 2) (at 0 0 0)
        (effects (font (size 1.27 1.27)) hide)
      )
      (property "Datasheet" "~" (id 3) (at 0 0 0)
        (effects (font (size 1.27 1.27)) hide)
      )
      (property "ki_keywords" "power-flag" (id 4) (at 0 0 0)
        (effects (font (size 1.27 1.27)) hide)
      )
      (property "ki_description" "Special symbol for telling ERC where power comes from" (id 5) (at 0 0 0)
        (effects (font (size 1.27 1.27)) hide)
      )
      (symbol "PWR_FLAG_0_0"
        (pin power_out line (at 0 0 90) (length 0)
          (name "pwr" (effects (font (size 1.27 1.27))))
          (number "1" (effects (font (size 1.27 1.27))))
        )
      )
      (symbol "PWR_FLAG_0_1"
        (polyline
          (pts
            (xy 0 0)
            (xy 0 1.27)
            (xy -1.016 1.905)
            (xy 0 2.54)
            (xy 1.016 1.905)
            (xy 0 1.27)
          )
          (stroke (width 0) (type default) (color 0 0 0 0))
          (fill (type none))
        )
      )
    )
    (symbol "pspice:INDUCTOR" (pin_numbers hide) (pin_names (offset 0)) (in_bom yes) (on_board yes)
      (property "Reference" "L" (id 0) (at 0 2.54 0)
        (effects (font (size 1.27 1.27)))
      )
      (property "Value" "INDUCTOR" (id 1) (at 0 -1.27 0)
        (effects (font (size 1.27 1.27)))
      )
      (property "Footprint" "" (id 2) (at 0 0 0)
        (effects (font (size 1.27 1.27)) hide)
      )
      (property "Datasheet" "~" (id 3) (at 0 0 0)
        (effects (font (size 1.27 1.27)) hide)
      )
      (property "ki_keywords" "simulation" (id 4) (at 0 0 0)
        (effects (font (size 1.27 1.27)) hide)
      )
      (property "ki_description" "Inductor symbol for simulation only" (id 5) (at 0 0 0)
        (effects (font (size 1.27 1.27)) hide)
      )
      (symbol "INDUCTOR_0_1"
        (arc (start -2.54 0) (mid -3.81 1.27) (end -5.08 0)
          (stroke (width 0) (type default) (color 0 0 0 0))
          (fill (type none))
        )
        (arc (start 0 0) (mid -1.27 1.27) (end -2.54 0)
          (stroke (width 0) (type default) (color 0 0 0 0))
          (fill (type none))
        )
        (arc (start 2.54 0) (mid 1.27 1.27) (end 0 0)
          (stroke (width 0) (type default) (color 0 0 0 0))
          (fill (type none))
        )
        (arc (start 5.08 0) (mid 3.81 1.27) (end 2.54 0)
          (stroke (width 0) (type default) (color 0 0 0 0))
          (fill (type none))
        )
      )
      (symbol "INDUCTOR_1_1"
        (pin input line (at -6.35 0 0) (length 1.27)
          (name "1" (effects (font (size 0.762 0.762))))
          (number "1" (effects (font (size 0.762 0.762))))
        )
        (pin input line (at 6.35 0 180) (length 1.27)
          (name "2" (effects (font (size 0.762 0.762))))
          (number "2" (effects (font (size 0.762 0.762))))
        )
      )
    )
  )


  (junction (at 82.55 57.15) (diameter 0) (color 0 0 0 0)
    (uuid 00faaea1-5bbe-4003-a643-93aa9eb80979)
  )
  (junction (at 240.03 60.96) (diameter 0) (color 0 0 0 0)
    (uuid 0987a420-2e15-470c-919d-95d882f504f1)
  )
  (junction (at 106.299 40.64) (diameter 0) (color 0 0 0 0)
    (uuid 1bf7fd1a-1940-4e58-9589-24e12f8a79a4)
  )
  (junction (at 100.33 40.64) (diameter 0) (color 0 0 0 0)
    (uuid 2e0d1347-0f20-448e-ba97-fe8c5b725f8c)
  )
  (junction (at 205.74 76.2) (diameter 0) (color 0 0 0 0)
    (uuid 315c9ca5-e05c-44bb-9d88-30d1f8620bc4)
  )
  (junction (at 38.1 36.83) (diameter 0) (color 0 0 0 0)
    (uuid 3d9246d8-5da4-4521-8315-b5ee4719c8c5)
  )
  (junction (at 204.47 37.338) (diameter 0) (color 0 0 0 0)
    (uuid 49d4ae8e-2679-4f63-b88f-65eb64370412)
  )
  (junction (at 231.14 35.56) (diameter 0) (color 0 0 0 0)
    (uuid 52f28bc6-440b-41a0-bc45-3072e7c07ba0)
  )
  (junction (at 90.17 99.06) (diameter 0) (color 0 0 0 0)
    (uuid 64b10d44-639b-4426-9a7a-c61ebba5a79e)
  )
  (junction (at 231.14 27.94) (diameter 0) (color 0 0 0 0)
    (uuid 6b506216-1162-4611-ab5d-0c2e29f6a994)
  )
  (junction (at 220.98 27.94) (diameter 0) (color 0 0 0 0)
    (uuid 70260f50-7669-4600-b00e-a5e594150e07)
  )
  (junction (at 48.26 60.96) (diameter 0) (color 0 0 0 0)
    (uuid 70a06943-1850-4c50-b4c6-f115df660c52)
  )
  (junction (at 204.47 45.72) (diameter 0) (color 0 0 0 0)
    (uuid 82287c7f-268f-4622-80c5-abc02f355b75)
  )
  (junction (at 233.68 60.96) (diameter 0) (color 0 0 0 0)
    (uuid 87ee8edd-b3c8-40b1-bd65-315ecfa07d8c)
  )
  (junction (at 82.55 40.64) (diameter 0) (color 0 0 0 0)
    (uuid 8b8181a1-0a2e-4951-9fa2-826c72fc2042)
  )
  (junction (at 63.5 57.15) (diameter 0) (color 0 0 0 0)
    (uuid b6049ed5-4f64-4a50-a20f-35a5e1e03003)
  )
  (junction (at 77.343 99.06) (diameter 0) (color 0 0 0 0)
    (uuid c210bb6f-4cf0-440d-b0be-be4a85980fc8)
  )
  (junction (at 186.69 76.2) (diameter 0) (color 0 0 0 0)
    (uuid c8c5bffb-3283-497e-a9de-61a22302bf1c)
  )
  (junction (at 110.49 123.19) (diameter 0) (color 0 0 0 0)
    (uuid f6925588-0fb0-416c-a88b-ca93aa400d64)
  )
  (junction (at 208.153 59.69) (diameter 0) (color 0 0 0 0)
    (uuid f779cc6c-65ad-40e0-854f-5b1ef0f4e8dd)
  )

  (no_connect (at 199.39 43.307) (uuid 12d7a4f1-28bf-4130-95ba-6fab5ed0ef8e))
  (no_connect (at 73.66 45.72) (uuid 9e6d99c9-918e-46ab-aee7-be1a14dcedcc))

  (wire (pts (xy 231.14 27.94) (xy 256.54 27.94))
    (stroke (width 0) (type default) (color 0 0 0 0))
    (uuid 00a32208-f046-427a-b95d-c4bac2db9607)
  )
  (wire (pts (xy 23.241 61.976) (xy 23.241 63.119))
    (stroke (width 0) (type default) (color 0 0 0 0))
    (uuid 015012a7-5abc-4152-a975-58e113e9d1ba)
  )
  (polyline (pts (xy 231.14 101.6) (xy 280.67 101.6))
    (stroke (width 0) (type default) (color 0 0 0 0))
    (uuid 0677bab4-04ea-4855-8e22-bd73625837c3)
  )

  (wire (pts (xy 186.69 71.755) (xy 186.69 76.2))
    (stroke (width 0) (type default) (color 0 0 0 0))
    (uuid 07a0e2ac-1d73-46ff-bc13-af371dca4199)
  )
  (wire (pts (xy 63.5 57.15) (xy 82.55 57.15))
    (stroke (width 0) (type default) (color 0 0 0 0))
    (uuid 154b2408-841d-4ceb-98f3-8e1e1e4da52d)
  )
  (wire (pts (xy 240.03 69.85) (xy 240.03 72.39))
    (stroke (width 0) (type default) (color 0 0 0 0))
    (uuid 235cc112-b35f-41d0-9f79-385ee52cf3ac)
  )
  (wire (pts (xy 189.23 86.36) (xy 186.69 86.36))
    (stroke (width 0) (type default) (color 0 0 0 0))
    (uuid 27022daf-60f3-4567-925f-affb794a40c6)
  )
  (wire (pts (xy 172.72 76.2) (xy 176.53 76.2))
    (stroke (width 0) (type default) (color 0 0 0 0))
    (uuid 28011e04-6768-43d6-9718-890840dfc028)
  )
  (wire (pts (xy 205.74 76.2) (xy 205.74 86.36))
    (stroke (width 0) (type default) (color 0 0 0 0))
    (uuid 2c5a7310-7b68-47a2-83be-d4a678b039cc)
  )
  (polyline (pts (xy 125.73 24.13) (xy 125.73 101.6))
    (stroke (width 0) (type default) (color 0 0 0 0))
    (uuid 2ddfa9f4-f5fd-4bab-9bdc-6ca0e3df25d6)
  )

  (wire (pts (xy 184.15 76.2) (xy 186.69 76.2))
    (stroke (width 0) (type default) (color 0 0 0 0))
    (uuid 2f3db21d-1d35-482e-bf87-3a3b19cf4a7a)
  )
  (polyline (pts (xy 119.38 82.55) (xy 119.38 24.13))
    (stroke (width 0) (type default) (color 0 0 0 0))
    (uuid 2fac5093-6e7a-4990-8696-95044e7722da)
  )

  (wire (pts (xy 82.55 40.64) (xy 82.55 45.72))
    (stroke (width 0) (type default) (color 0 0 0 0))
    (uuid 33b5a529-c3a3-4e9e-b4e0-aa90ca0bb237)
  )
  (polyline (pts (xy 48.26 87.63) (xy 48.26 90.17))
    (stroke (width 0) (type default) (color 0 0 0 0))
    (uuid 34aa42ac-6cdd-47ad-8f4f-75759ca41103)
  )
  (polyline (pts (xy 13.97 82.55) (xy 119.38 82.55))
    (stroke (width 0) (type default) (color 0 0 0 0))
    (uuid 35e286ce-62da-47ed-aaad-97601661e867)
  )

  (wire (pts (xy 29.464 74.295) (xy 29.464 76.073))
    (stroke (width 0) (type default) (color 0 0 0 0))
    (uuid 35ff7769-ca4d-4dac-bd5c-dfe063370f9b)
  )
  (wire (pts (xy 231.14 35.56) (xy 231.14 39.37))
    (stroke (width 0) (type default) (color 0 0 0 0))
    (uuid 38686d51-d1f8-4fce-a995-217fa64ff86e)
  )
  (wire (pts (xy 186.69 86.36) (xy 186.69 76.2))
    (stroke (width 0) (type default) (color 0 0 0 0))
    (uuid 3a5a9ba6-ffb4-45a0-a5f0-865f7620628c)
  )
  (wire (pts (xy 28.956 62.611) (xy 28.956 61.976))
    (stroke (width 0) (type default) (color 0 0 0 0))
    (uuid 3dfe90da-c09c-4716-b309-5d8e60083e8d)
  )
  (wire (pts (xy 63.5 57.15) (xy 63.5 59.69))
    (stroke (width 0) (type default) (color 0 0 0 0))
    (uuid 3f501952-6c78-4400-84e7-4f1aca3279d2)
  )
  (wire (pts (xy 82.55 53.34) (xy 82.55 57.15))
    (stroke (width 0) (type default) (color 0 0 0 0))
    (uuid 418a452d-a3ad-4dc1-bd9d-e7053fa4e259)
  )
  (wire (pts (xy 240.03 60.96) (xy 243.84 60.96))
    (stroke (width 0) (type default) (color 0 0 0 0))
    (uuid 42c36630-1ea1-4e31-8f4c-b7dc752735d3)
  )
  (wire (pts (xy 141.605 26.416) (xy 141.605 48.387))
    (stroke (width 0) (type default) (color 0 0 0 0))
    (uuid 45255f02-1253-492b-bfca-14d4dd33fe48)
  )
  (wire (pts (xy 100.33 40.64) (xy 106.299 40.64))
    (stroke (width 0) (type default) (color 0 0 0 0))
    (uuid 4531bd97-5180-4e55-9f7f-3353cc47b5a0)
  )
  (wire (pts (xy 82.55 57.15) (xy 100.33 57.15))
    (stroke (width 0) (type default) (color 0 0 0 0))
    (uuid 48acd0e0-82dc-4d2e-844b-7e03af1c642f)
  )
  (wire (pts (xy 220.98 27.94) (xy 220.98 30.48))
    (stroke (width 0) (type default) (color 0 0 0 0))
    (uuid 4a13e0e2-3e94-45b9-a607-f0ef673f16ec)
  )
  (wire (pts (xy 141.605 48.387) (xy 153.67 48.387))
    (stroke (width 0) (type default) (color 0 0 0 0))
    (uuid 4afbce41-5a82-481e-a5ec-77a6c2144af2)
  )
  (wire (pts (xy 208.153 60.96) (xy 218.44 60.96))
    (stroke (width 0) (type default) (color 0 0 0 0))
    (uuid 4ec5108b-59e2-4dad-8e5c-9aaca7b96354)
  )
  (wire (pts (xy 71.12 111.76) (xy 71.12 113.03))
    (stroke (width 0) (type default) (color 0 0 0 0))
    (uuid 4f264d74-d402-4543-9468-ec83275c11f0)
  )
  (wire (pts (xy 38.1 60.96) (xy 48.26 60.96))
    (stroke (width 0) (type default) (color 0 0 0 0))
    (uuid 526081f8-730d-4c88-8819-abbf17ed9638)
  )
  (wire (pts (xy 156.21 58.293) (xy 156.21 57.531))
    (stroke (width 0) (type default) (color 0 0 0 0))
    (uuid 5420f6d3-692c-4c57-81ad-96e5db2b88e4)
  )
  (wire (pts (xy 145.161 53.467) (xy 145.161 71.755))
    (stroke (width 0) (type default) (color 0 0 0 0))
    (uuid 5655def8-b8b7-40da-b0a2-5b7f8a80dddb)
  )
  (wire (pts (xy 186.69 76.2) (xy 189.23 76.2))
    (stroke (width 0) (type default) (color 0 0 0 0))
    (uuid 56d1d5a3-6d53-4a1d-b68e-d36de8be3932)
  )
  (polyline (pts (xy 48.26 90.17) (xy 48.26 147.32))
    (stroke (width 0) (type default) (color 0 0 0 0))
    (uuid 58a9eb23-37d0-41c6-8a1d-a4bd84a174ca)
  )

  (wire (pts (xy 48.26 57.15) (xy 48.26 60.96))
    (stroke (width 0) (type default) (color 0 0 0 0))
    (uuid 599938fa-165a-4db4-905d-c69c98c0d432)
  )
  (wire (pts (xy 63.5 50.8) (xy 63.5 57.15))
    (stroke (width 0) (type default) (color 0 0 0 0))
    (uuid 60767043-ee7e-4d3d-b762-8fdf94373db2)
  )
  (wire (pts (xy 38.1 53.34) (xy 38.1 60.96))
    (stroke (width 0) (type default) (color 0 0 0 0))
    (uuid 62f66255-7160-46df-8e16-e99e8ed753cf)
  )
  (wire (pts (xy 22.987 76.073) (xy 22.987 77.343))
    (stroke (width 0) (type default) (color 0 0 0 0))
    (uuid 67dd8f5b-6884-4ae9-8a3b-e1bd2f1200e6)
  )
  (wire (pts (xy 195.834 67.564) (xy 150.241 67.564))
    (stroke (width 0) (type default) (color 0 0 0 0))
    (uuid 6aaed188-8a7c-48c7-9494-8b56766eef45)
  )
  (wire (pts (xy 147.32 43.307) (xy 153.67 43.307))
    (stroke (width 0) (type default) (color 0 0 0 0))
    (uuid 6adab1da-4a93-46ed-a285-2305dab611df)
  )
  (wire (pts (xy 77.343 99.06) (xy 71.12 99.06))
    (stroke (width 0) (type default) (color 0 0 0 0))
    (uuid 6e1116e5-6bb5-4265-927a-03113450f519)
  )
  (wire (pts (xy 48.26 60.96) (xy 48.26 67.31))
    (stroke (width 0) (type default) (color 0 0 0 0))
    (uuid 70a43579-f3d6-4268-ac9b-9215584d7c30)
  )
  (polyline (pts (xy 280.67 24.13) (xy 125.73 24.13))
    (stroke (width 0) (type default) (color 0 0 0 0))
    (uuid 7968dfbf-cbd5-40bd-bc20-de9150013b0e)
  )

  (wire (pts (xy 90.17 99.06) (xy 77.343 99.06))
    (stroke (width 0) (type default) (color 0 0 0 0))
    (uuid 798f3d63-3ea0-470d-b0dc-99e3d35721bc)
  )
  (wire (pts (xy 196.85 86.36) (xy 205.74 86.36))
    (stroke (width 0) (type default) (color 0 0 0 0))
    (uuid 7a44de62-7778-494c-83ca-e8da8ba5c927)
  )
  (wire (pts (xy 71.12 104.14) (xy 71.12 99.06))
    (stroke (width 0) (type default) (color 0 0 0 0))
    (uuid 7bd98faa-1d5d-4541-9771-797daf801d02)
  )
  (wire (pts (xy 256.54 43.18) (xy 264.16 43.18))
    (stroke (width 0) (type default) (color 0 0 0 0))
    (uuid 7c8f817a-ba24-4d69-b867-f4bca1d13ae8)
  )
  (wire (pts (xy 28.956 61.976) (xy 23.241 61.976))
    (stroke (width 0) (type default) (color 0 0 0 0))
    (uuid 805f88e4-41e0-4159-93f4-942ab598d0b8)
  )
  (wire (pts (xy 82.55 40.64) (xy 100.33 40.64))
    (stroke (width 0) (type default) (color 0 0 0 0))
    (uuid 8550f4ef-f0d3-4e08-9303-68a00b005e6e)
  )
  (wire (pts (xy 204.47 38.1) (xy 204.47 37.338))
    (stroke (width 0) (type default) (color 0 0 0 0))
    (uuid 8768ebf1-7fd4-45fe-b17d-03bf69c99bc3)
  )
  (wire (pts (xy 172.72 76.2) (xy 172.72 78.74))
    (stroke (width 0) (type default) (color 0 0 0 0))
    (uuid 877afb62-03fb-41dd-aa57-da1c77bd59a5)
  )
  (wire (pts (xy 233.68 60.96) (xy 231.14 60.96))
    (stroke (width 0) (type default) (color 0 0 0 0))
    (uuid 8be5f106-7e04-4bc4-a399-47ba0fedc4b1)
  )
  (wire (pts (xy 204.47 37.338) (xy 204.47 27.94))
    (stroke (width 0) (type default) (color 0 0 0 0))
    (uuid 8ec5042f-ac83-452d-b872-dd9e4e0916af)
  )
  (wire (pts (xy 145.161 71.755) (xy 186.69 71.755))
    (stroke (width 0) (type default) (color 0 0 0 0))
    (uuid 93063836-4a5a-4263-be58-11f7df6c27c2)
  )
  (wire (pts (xy 97.79 123.19) (xy 110.49 123.19))
    (stroke (width 0) (type default) (color 0 0 0 0))
    (uuid 94a253c4-159b-4da8-a227-742261661340)
  )
  (polyline (pts (xy 280.67 101.6) (xy 280.67 24.13))
    (stroke (width 0) (type default) (color 0 0 0 0))
    (uuid 95d79997-6f71-4921-b504-de60bb0613e2)
  )

  (wire (pts (xy 233.68 60.96) (xy 240.03 60.96))
    (stroke (width 0) (type default) (color 0 0 0 0))
    (uuid 9694226e-6b91-49a4-a8f0-94f770976283)
  )
  (wire (pts (xy 147.32 41.148) (xy 152.4 41.148))
    (stroke (width 0) (type default) (color 0 0 0 0))
    (uuid 98042ad4-cdf6-41dc-8903-9784b2d0baa7)
  )
  (wire (pts (xy 38.1 35.56) (xy 38.1 36.83))
    (stroke (width 0) (type default) (color 0 0 0 0))
    (uuid 9ae980f1-5909-40b8-a826-a725a3593505)
  )
  (wire (pts (xy 201.295 66.04) (xy 195.834 66.04))
    (stroke (width 0) (type default) (color 0 0 0 0))
    (uuid a0c2579c-4c5a-4dbc-9a0e-b6c1b4d8f0c2)
  )
  (wire (pts (xy 90.17 99.06) (xy 90.17 118.11))
    (stroke (width 0) (type default) (color 0 0 0 0))
    (uuid a0e231f9-154d-40bb-accb-a401326e700f)
  )
  (polyline (pts (xy 125.73 101.6) (xy 227.33 101.6))
    (stroke (width 0) (type default) (color 0 0 0 0))
    (uuid a421a698-708a-4964-9df5-93ecb1009b1f)
  )

  (wire (pts (xy 110.49 123.19) (xy 115.57 123.19))
    (stroke (width 0) (type default) (color 0 0 0 0))
    (uuid a66d8f67-4349-4f9d-8dde-027db865f987)
  )
  (wire (pts (xy 201.676 45.72) (xy 201.676 26.416))
    (stroke (width 0) (type default) (color 0 0 0 0))
    (uuid a710713a-9ebc-4500-bd94-cb764f962548)
  )
  (wire (pts (xy 73.66 40.64) (xy 82.55 40.64))
    (stroke (width 0) (type default) (color 0 0 0 0))
    (uuid a750c314-fbd4-4b19-96c7-61a289191e93)
  )
  (wire (pts (xy 100.33 40.64) (xy 100.33 44.45))
    (stroke (width 0) (type default) (color 0 0 0 0))
    (uuid a8a8b13f-e564-44e3-a7e0-a3b7ac54a5b1)
  )
  (polyline (pts (xy 120.65 87.63) (xy 48.26 87.63))
    (stroke (width 0) (type default) (color 0 0 0 0))
    (uuid a9617d31-eee3-47a3-90e0-1b661ffd713d)
  )

  (wire (pts (xy 152.4 41.148) (xy 152.4 38.608))
    (stroke (width 0) (type default) (color 0 0 0 0))
    (uuid aa3ced67-c47f-4d79-a8e4-32b01e8eb2cc)
  )
  (wire (pts (xy 90.17 99.06) (xy 92.71 99.06))
    (stroke (width 0) (type default) (color 0 0 0 0))
    (uuid ab7682be-84ca-4d6c-b2f7-59aa9e551a5f)
  )
  (wire (pts (xy 147.32 43.307) (xy 147.32 41.148))
    (stroke (width 0) (type default) (color 0 0 0 0))
    (uuid aded5885-62b7-4a0d-9b98-7789db7380a9)
  )
  (wire (pts (xy 153.67 53.467) (xy 145.161 53.467))
    (stroke (width 0) (type default) (color 0 0 0 0))
    (uuid afe7662f-2d61-41ba-ae17-0d7da7551b4d)
  )
  (wire (pts (xy 106.299 40.64) (xy 111.76 40.64))
    (stroke (width 0) (type default) (color 0 0 0 0))
    (uuid b1c59454-e0b4-4aaf-9eb4-fc5bd8c2d553)
  )
  (polyline (pts (xy 228.6 101.6) (xy 227.33 101.6))
    (stroke (width 0) (type default) (color 0 0 0 0))
    (uuid b259e991-ccac-493a-bf7f-a604e979ab0f)
  )
  (polyline (pts (xy 48.26 147.32) (xy 120.65 147.32))
    (stroke (width 0) (type default) (color 0 0 0 0))
    (uuid b3d525e7-476b-4131-8b12-18b4ff2f301c)
  )

  (wire (pts (xy 205.74 76.2) (xy 233.68 76.2))
    (stroke (width 0) (type default) (color 0 0 0 0))
    (uuid b62d224c-f3cf-472c-9d23-11c19e88a915)
  )
  (wire (pts (xy 203.073 52.07) (xy 201.295 52.07))
    (stroke (width 0) (type default) (color 0 0 0 0))
    (uuid b7150d07-3b76-48f3-b7ce-95f5372ffbb5)
  )
  (wire (pts (xy 100.33 57.15) (xy 100.33 52.07))
    (stroke (width 0) (type default) (color 0 0 0 0))
    (uuid bb107d4a-25c3-4e88-8a83-6c9dea23a858)
  )
  (wire (pts (xy 153.67 56.007) (xy 153.67 57.531))
    (stroke (width 0) (type default) (color 0 0 0 0))
    (uuid bbeb5dfc-5cd5-4ae0-bd5f-22dfa09d04f9)
  )
  (wire (pts (xy 150.241 50.927) (xy 153.67 50.927))
    (stroke (width 0) (type default) (color 0 0 0 0))
    (uuid bc065289-1b0f-42e5-b1b9-9efd3943cac2)
  )
  (wire (pts (xy 30.48 36.83) (xy 38.1 36.83))
    (stroke (width 0) (type default) (color 0 0 0 0))
    (uuid bd202f8f-d7d1-407c-91e6-bb6e2572e549)
  )
  (polyline (pts (xy 13.97 24.13) (xy 13.97 82.55))
    (stroke (width 0) (type default) (color 0 0 0 0))
    (uuid bf8a20f2-1a94-42b4-a092-ad70a24f6929)
  )

  (wire (pts (xy 201.676 26.416) (xy 141.605 26.416))
    (stroke (width 0) (type default) (color 0 0 0 0))
    (uuid c0e798a1-6651-4ea8-b20c-64ed885b6623)
  )
  (wire (pts (xy 204.47 59.69) (xy 208.153 59.69))
    (stroke (width 0) (type default) (color 0 0 0 0))
    (uuid c1562b10-d932-444b-b7cc-92fbe6385223)
  )
  (wire (pts (xy 204.47 45.72) (xy 201.676 45.72))
    (stroke (width 0) (type default) (color 0 0 0 0))
    (uuid c30b3b4f-873a-4085-ba2b-a23b3df71047)
  )
  (wire (pts (xy 196.85 76.2) (xy 205.74 76.2))
    (stroke (width 0) (type default) (color 0 0 0 0))
    (uuid ca4184a6-ba89-47f8-8ac6-c9eda4be9846)
  )
  (wire (pts (xy 233.68 76.2) (xy 233.68 60.96))
    (stroke (width 0) (type default) (color 0 0 0 0))
    (uuid cadcdc71-1d79-44f0-be89-380b660c7135)
  )
  (wire (pts (xy 204.47 74.93) (xy 210.82 74.93))
    (stroke (width 0) (type default) (color 0 0 0 0))
    (uuid cdd431a6-0a64-4325-8766-41231b52bc91)
  )
  (wire (pts (xy 264.16 43.18) (xy 264.16 41.91))
    (stroke (width 0) (type default) (color 0 0 0 0))
    (uuid d2e00c3f-0f02-4d19-b369-f81abf56aabf)
  )
  (wire (pts (xy 48.26 45.72) (xy 53.34 45.72))
    (stroke (width 0) (type default) (color 0 0 0 0))
    (uuid d3bc74bc-b548-4b1d-bbb2-c3dccc01d201)
  )
  (polyline (pts (xy 228.6 101.6) (xy 231.14 101.6))
    (stroke (width 0) (type default) (color 0 0 0 0))
    (uuid d4bc02b9-820c-4792-b62d-6fd8aa04ac8c)
  )

  (wire (pts (xy 208.153 59.69) (xy 208.153 60.96))
    (stroke (width 0) (type default) (color 0 0 0 0))
    (uuid d616ccdb-5397-499f-b673-c34fa0d5d489)
  )
  (wire (pts (xy 199.39 37.338) (xy 199.39 38.227))
    (stroke (width 0) (type default) (color 0 0 0 0))
    (uuid d7cbccd7-78dd-4137-b415-bcc1e0283f6e)
  )
  (wire (pts (xy 240.03 64.77) (xy 240.03 60.96))
    (stroke (width 0) (type default) (color 0 0 0 0))
    (uuid ded89523-92a7-4931-9561-335f4ce0220e)
  )
  (polyline (pts (xy 119.38 24.13) (xy 13.97 24.13))
    (stroke (width 0) (type default) (color 0 0 0 0))
    (uuid defef504-4afd-4001-8472-6a9b4e2f6ba1)
  )

  (wire (pts (xy 195.834 66.04) (xy 195.834 67.564))
    (stroke (width 0) (type default) (color 0 0 0 0))
    (uuid df134969-35f4-4553-a9c6-23d9cafceedc)
  )
  (polyline (pts (xy 13.97 24.13) (xy 13.97 26.67))
    (stroke (width 0) (type default) (color 0 0 0 0))
    (uuid e150690c-c7e2-4ab2-9c4f-1c1aefafee21)
  )

  (wire (pts (xy 78.74 123.19) (xy 87.63 123.19))
    (stroke (width 0) (type default) (color 0 0 0 0))
    (uuid e21d7de8-a0d7-4a16-9644-429f324dcf88)
  )
  (wire (pts (xy 199.39 61.087) (xy 199.39 62.611))
    (stroke (width 0) (type default) (color 0 0 0 0))
    (uuid e224de11-bc00-4f23-90b0-068f240245ad)
  )
  (polyline (pts (xy 120.65 147.32) (xy 120.65 87.63))
    (stroke (width 0) (type default) (color 0 0 0 0))
    (uuid e2c2b79b-88fc-4c26-8102-f307f2a5dd16)
  )

  (wire (pts (xy 150.241 67.564) (xy 150.241 50.927))
    (stroke (width 0) (type default) (color 0 0 0 0))
    (uuid e2e6e9fb-1815-4445-a7c1-394eb7462b75)
  )
  (wire (pts (xy 38.1 45.72) (xy 38.1 36.83))
    (stroke (width 0) (type default) (color 0 0 0 0))
    (uuid e31abd27-764d-48a9-8d5f-5743f4dbd4d8)
  )
  (wire (pts (xy 208.153 45.72) (xy 204.47 45.72))
    (stroke (width 0) (type default) (color 0 0 0 0))
    (uuid e3c19d82-fc13-4b01-bb51-3d1305c88256)
  )
  (wire (pts (xy 201.295 52.07) (xy 201.295 66.04))
    (stroke (width 0) (type default) (color 0 0 0 0))
    (uuid e4a50d82-6985-41ad-aba2-40fedb368dc8)
  )
  (wire (pts (xy 220.98 35.56) (xy 231.14 35.56))
    (stroke (width 0) (type default) (color 0 0 0 0))
    (uuid ed7f8ec0-75e0-4e76-965f-3b01dcb09ea8)
  )
  (wire (pts (xy 153.67 57.531) (xy 156.21 57.531))
    (stroke (width 0) (type default) (color 0 0 0 0))
    (uuid f0c470c5-ce50-4024-bafc-bae23fb9acd2)
  )
  (wire (pts (xy 220.98 27.94) (xy 231.14 27.94))
    (stroke (width 0) (type default) (color 0 0 0 0))
    (uuid f1587f12-eda8-490b-9926-d8f30d81def3)
  )
  (wire (pts (xy 110.49 99.06) (xy 110.49 123.19))
    (stroke (width 0) (type default) (color 0 0 0 0))
    (uuid f1853694-3218-4309-b1fb-6fb0190659a1)
  )
  (wire (pts (xy 107.95 99.06) (xy 110.49 99.06))
    (stroke (width 0) (type default) (color 0 0 0 0))
    (uuid f20540ff-6974-4059-aa2c-49c735796b3c)
  )
  (wire (pts (xy 208.153 49.53) (xy 208.153 45.72))
    (stroke (width 0) (type default) (color 0 0 0 0))
    (uuid f31dd206-a6ab-41ca-bddf-0f5f6ba23506)
  )
  (wire (pts (xy 204.47 37.338) (xy 199.39 37.338))
    (stroke (width 0) (type default) (color 0 0 0 0))
    (uuid f348d966-0243-4b10-aa74-1b423c12fd89)
  )
  (wire (pts (xy 48.26 49.53) (xy 48.26 45.72))
    (stroke (width 0) (type default) (color 0 0 0 0))
    (uuid f3d0891b-1c36-4fea-8344-0f758664de1c)
  )
  (wire (pts (xy 152.4 30.988) (xy 152.4 29.718))
    (stroke (width 0) (type default) (color 0 0 0 0))
    (uuid f4292ad8-8ece-4d2c-badd-9386a7b3aee4)
  )
  (wire (pts (xy 63.5 35.56) (xy 38.1 35.56))
    (stroke (width 0) (type default) (color 0 0 0 0))
    (uuid f7cf6e39-c2ed-41e8-a5fa-e382e30cb1eb)
  )
  (wire (pts (xy 204.47 27.94) (xy 220.98 27.94))
    (stroke (width 0) (type default) (color 0 0 0 0))
    (uuid f91209c5-58fc-4065-8eea-17ecc238163a)
  )
  (wire (pts (xy 29.464 76.073) (xy 22.987 76.073))
    (stroke (width 0) (type default) (color 0 0 0 0))
    (uuid ff0f5ec8-8d4a-4a00-84ca-8bddc148a95e)
  )

  (text "Supply switching\n" (at 52.07 92.71 0)
    (effects (font (size 2.5 2.5) (thickness 0.254) bold) (justify left bottom))
    (uuid 0f2cf18b-ac12-4241-9fcc-027b1053468c)
  )
  (text "Battery Charger" (at 16.51 29.21 0)
    (effects (font (size 2.5 2.5) (thickness 0.254) bold) (justify left bottom))
    (uuid 492ebf1e-af1f-4691-bddc-96b08317fd9a)
  )
  (text "Should there be a high voltage coming in through Vbus,\nP-channel MOSFET switches off and The Vbus voltage goes through\nto be regulated by the Boost IC. should it be unplugged, schottky diode ensures\nvoltage from the now on p-channel mosfet doesn't switch it\noff through the gate."
    (at 49.53 142.24 0)
    (effects (font (size 1 1)) (justify left bottom))
    (uuid 4a71be72-af3f-4be7-953b-23aee18898d5)
  )
  (text "capacitors are chosen such that the output current can supply between 50-100mA\nwhen input voltage (battery voltage) drops below 2.01V the HAT will no longer be powered so as to \npreserve the battery life of the battery."
    (at 129.54 97.79 0)
    (effects (font (size 1 1)) (justify left bottom))
    (uuid ac8773b4-c020-494d-bc6c-8f186aa463b7)
  )
  (text "MCP7381 IC is featured with reverse polarity protection"
    (at 74.93 71.12 0)
    (effects (font (size 1 1)) (justify left bottom))
    (uuid ad4d3bd1-7295-4eea-a5c5-a926366f2281)
  )
  (text "3v3 Regulation" (at 246.38 97.79 0)
    (effects (font (size 2.5 2.5) (thickness 0.254) bold) (justify left bottom))
    (uuid d7d1ceec-cff0-4370-bd04-fc58e7798a78)
  )

  (label "Vin" (at 256.54 27.94 180)
    (effects (font (size 1.27 1.27) bold) (justify right bottom))
    (uuid 03d62286-7997-46b5-b5ff-fa4ef4a6db67)
  )
  (label "VBAT" (at 78.74 123.19 0)
    (effects (font (size 1.27 1.27) bold) (justify left bottom))
    (uuid 1a54c784-3f00-428d-82eb-2fde3bb372c5)
  )
  (label "Vin" (at 256.54 43.18 180)
    (effects (font (size 1.27 1.27) bold) (justify right bottom))
    (uuid 77060d5d-cecf-4b62-87f8-5f76ec9d8ce8)
  )
  (label "VBAT" (at 111.76 40.64 0)
    (effects (font (size 1.27 1.27) bold) (justify left bottom))
    (uuid e93a4eb7-1df5-4ec8-b8d8-33d4cb806736)
  )
  (label "Vin" (at 115.57 123.19 0)
    (effects (font (size 1.27 1.27) bold) (justify left bottom))
    (uuid ee570b2a-b352-4aa8-8d11-a5ce860ec53b)
  )

  (hierarchical_label "Vbus" (shape input) (at 71.12 99.06 180)
    (effects (font (size 1.27 1.27)) (justify right))
    (uuid 2b711815-4fc8-4857-a3ef-afb9f8e87a68)
  )
  (hierarchical_label "Vbus" (shape input) (at 30.48 36.83 180)
    (effects (font (size 1.27 1.27)) (justify right))
    (uuid 464aa031-265c-410d-83c1-58d5ac5e6c8d)
  )
  (hierarchical_label "3v3" (shape output) (at 243.84 60.96 0)
    (effects (font (size 1.27 1.27)) (justify left))
    (uuid 82ab181e-0a8e-4ab7-890a-3c50b616c264)
  )

  (symbol (lib_id "power:GND") (at 199.39 62.611 0) (unit 1)
    (in_bom yes) (on_board yes) (fields_autoplaced)
    (uuid 024afdd8-77cb-4850-9602-6ded52ddbdcd)
    (property "Reference" "#PWR029" (id 0) (at 199.39 68.961 0)
      (effects (font (size 1.27 1.27)) hide)
    )
    (property "Value" "GND" (id 1) (at 199.39 67.691 0))
    (property "Footprint" "" (id 2) (at 199.39 62.611 0)
      (effects (font (size 1.27 1.27)) hide)
    )
    (property "Datasheet" "" (id 3) (at 199.39 62.611 0)
      (effects (font (size 1.27 1.27)) hide)
    )
    (pin "1" (uuid 50d16f31-39ed-4663-8ea9-131224c06fdd))
  )

  (symbol (lib_id "pspice:INDUCTOR") (at 224.79 60.96 0) (unit 1)
    (in_bom yes) (on_board yes) (fields_autoplaced)
    (uuid 0d08cf93-997b-4436-821e-4d93f7c5d3a9)
    (property "Reference" "L1" (id 0) (at 224.79 54.61 0))
    (property "Value" "22uH" (id 1) (at 224.79 57.15 0))
    (property "Footprint" "Inductor_SMD:L_0603_1608Metric" (id 2) (at 224.79 60.96 0)
      (effects (font (size 1.27 1.27)) hide)
    )
    (property "Datasheet" "~" (id 3) (at 224.79 60.96 0)
      (effects (font (size 1.27 1.27)) hide)
    )
    (pin "1" (uuid 71391494-f0a7-4b41-a0a0-872ce7a3ba50))
    (pin "2" (uuid fae252e0-f213-4836-91f2-aa74cec2d0f3))
  )

  (symbol (lib_id "power:GND") (at 156.21 58.293 0) (unit 1)
    (in_bom yes) (on_board yes) (fields_autoplaced)
    (uuid 12558a90-43ee-4553-87ea-b7fec119fdd2)
    (property "Reference" "#PWR027" (id 0) (at 156.21 64.643 0)
      (effects (font (size 1.27 1.27)) hide)
    )
    (property "Value" "GND" (id 1) (at 156.21 63.373 0))
    (property "Footprint" "" (id 2) (at 156.21 58.293 0)
      (effects (font (size 1.27 1.27)) hide)
    )
    (property "Datasheet" "" (id 3) (at 156.21 58.293 0)
      (effects (font (size 1.27 1.27)) hide)
    )
    (pin "1" (uuid 2119f341-d401-47b7-bf9d-246df57f9935))
  )

  (symbol (lib_id "power:GND") (at 231.14 39.37 0) (unit 1)
    (in_bom yes) (on_board yes) (fields_autoplaced)
    (uuid 13926c31-60bd-408f-90df-58da53618d43)
    (property "Reference" "#PWR031" (id 0) (at 231.14 45.72 0)
      (effects (font (size 1.27 1.27)) hide)
    )
    (property "Value" "GND" (id 1) (at 231.14 44.45 0))
    (property "Footprint" "" (id 2) (at 231.14 39.37 0)
      (effects (font (size 1.27 1.27)) hide)
    )
    (property "Datasheet" "" (id 3) (at 231.14 39.37 0)
      (effects (font (size 1.27 1.27)) hide)
    )
    (pin "1" (uuid 56b0ffab-0753-4f7a-8017-3479511a5e17))
  )

  (symbol (lib_id "Device:R") (at 48.26 53.34 0) (unit 1)
    (in_bom yes) (on_board yes) (fields_autoplaced)
    (uuid 16965477-0b5e-467d-928c-8cd018e8eafd)
    (property "Reference" "R1" (id 0) (at 50.8 52.0699 0)
      (effects (font (size 1.27 1.27)) (justify left))
    )
    (property "Value" "10k" (id 1) (at 50.8 54.6099 0)
      (effects (font (size 1.27 1.27)) (justify left))
    )
    (property "Footprint" "Resistor_SMD:R_0603_1608Metric" (id 2) (at 46.482 53.34 90)
      (effects (font (size 1.27 1.27)) hide)
    )
    (property "Datasheet" "~" (id 3) (at 48.26 53.34 0)
      (effects (font (size 1.27 1.27)) hide)
    )
    (pin "1" (uuid 64202ec7-5d25-4c5e-89b6-af3926febbeb))
    (pin "2" (uuid 19f839a5-ccfc-42af-9172-a60f5f602e3d))
  )

  (symbol (lib_id "power:GND") (at 48.26 67.31 0) (unit 1)
    (in_bom yes) (on_board yes) (fields_autoplaced)
    (uuid 169f2fce-06b2-4370-9ee8-71cc966a0ae4)
    (property "Reference" "#PWR023" (id 0) (at 48.26 73.66 0)
      (effects (font (size 1.27 1.27)) hide)
    )
    (property "Value" "GND" (id 1) (at 48.26 72.39 0))
    (property "Footprint" "" (id 2) (at 48.26 67.31 0)
      (effects (font (size 1.27 1.27)) hide)
    )
    (property "Datasheet" "" (id 3) (at 48.26 67.31 0)
      (effects (font (size 1.27 1.27)) hide)
    )
    (pin "1" (uuid d55c2304-85e0-47df-86d1-753de43b4e9d))
  )

  (symbol (lib_id "Device:C") (at 38.1 49.53 0) (unit 1)
    (in_bom yes) (on_board yes) (fields_autoplaced)
    (uuid 180b9f57-cc2a-4726-b2c2-5e99cf30e663)
    (property "Reference" "C1" (id 0) (at 41.91 48.2599 0)
      (effects (font (size 1.27 1.27)) (justify left))
    )
    (property "Value" "4.7u" (id 1) (at 41.91 50.7999 0)
      (effects (font (size 1.27 1.27)) (justify left))
    )
    (property "Footprint" "Capacitor_SMD:C_0603_1608Metric" (id 2) (at 39.0652 53.34 0)
      (effects (font (size 1.27 1.27)) hide)
    )
    (property "Datasheet" "~" (id 3) (at 38.1 49.53 0)
      (effects (font (size 1.27 1.27)) hide)
    )
    (pin "1" (uuid e1ffe346-a422-4f5e-bf77-00af34e2e10f))
    (pin "2" (uuid 37063b8f-56ef-4bd6-8001-b955ddaec640))
  )

  (symbol (lib_id "Device:R") (at 180.34 76.2 90) (unit 1)
    (in_bom yes) (on_board yes) (fields_autoplaced)
    (uuid 28aa0230-b358-493e-b3f8-57d18dfbda4a)
    (property "Reference" "R3" (id 0) (at 180.34 69.85 90))
    (property "Value" "10k" (id 1) (at 180.34 72.39 90))
    (property "Footprint" "Resistor_SMD:R_0603_1608Metric" (id 2) (at 180.34 77.978 90)
      (effects (font (size 1.27 1.27)) hide)
    )
    (property "Datasheet" "~" (id 3) (at 180.34 76.2 0)
      (effects (font (size 1.27 1.27)) hide)
    )
    (pin "1" (uuid e5f4f84a-88b7-48c8-b83e-562d354302fd))
    (pin "2" (uuid e7e73ee5-6717-4f6d-927a-1afecd5558b9))
  )

  (symbol (lib_id "Connector:TestPoint") (at 77.343 99.06 0) (unit 1)
    (in_bom yes) (on_board yes) (fields_autoplaced)
    (uuid 28dd0ef2-07c3-4fb7-a156-33bb062df93c)
    (property "Reference" "TP1" (id 0) (at 78.74 94.4879 0)
      (effects (font (size 1.27 1.27)) (justify left))
    )
    (property "Value" "TestPoint" (id 1) (at 78.74 97.0279 0)
      (effects (font (size 1.27 1.27)) (justify left))
    )
    (property "Footprint" "TestPoint:TestPoint_Pad_D1.0mm" (id 2) (at 82.423 99.06 0)
      (effects (font (size 1.27 1.27)) hide)
    )
    (property "Datasheet" "~" (id 3) (at 82.423 99.06 0)
      (effects (font (size 1.27 1.27)) hide)
    )
    (pin "1" (uuid 5d5888be-bd38-40b2-895f-7aef69140f95))
  )

  (symbol (lib_id "Device:C") (at 82.55 49.53 0) (unit 1)
    (in_bom yes) (on_board yes) (fields_autoplaced)
    (uuid 4644daa9-effe-4f77-8b42-beed7545b295)
    (property "Reference" "C2" (id 0) (at 86.36 48.2599 0)
      (effects (font (size 1.27 1.27)) (justify left))
    )
    (property "Value" "4.7u" (id 1) (at 86.36 50.7999 0)
      (effects (font (size 1.27 1.27)) (justify left))
    )
    (property "Footprint" "Capacitor_SMD:C_0603_1608Metric" (id 2) (at 83.5152 53.34 0)
      (effects (font (size 1.27 1.27)) hide)
    )
    (property "Datasheet" "~" (id 3) (at 82.55 49.53 0)
      (effects (font (size 1.27 1.27)) hide)
    )
    (pin "1" (uuid a474115f-6802-4663-a588-f5be744cf577))
    (pin "2" (uuid b7b02803-03a1-4cf1-9756-51bc26a7ee23))
  )

  (symbol (lib_id "power:PWR_FLAG") (at 264.16 41.91 0) (unit 1)
    (in_bom yes) (on_board yes) (fields_autoplaced)
    (uuid 4efca0bc-f5ac-4d42-88aa-85d5f3543728)
    (property "Reference" "#FLG06" (id 0) (at 264.16 40.005 0)
      (effects (font (size 1.27 1.27)) hide)
    )
    (property "Value" "PWR_FLAG" (id 1) (at 264.16 36.83 0))
    (property "Footprint" "" (id 2) (at 264.16 41.91 0)
      (effects (font (size 1.27 1.27)) hide)
    )
    (property "Datasheet" "~" (id 3) (at 264.16 41.91 0)
      (effects (font (size 1.27 1.27)) hide)
    )
    (pin "1" (uuid 3e95d4f7-1a21-418a-b61b-fc1d2e1101d7))
  )

  (symbol (lib_id "power:GND") (at 172.72 78.74 0) (unit 1)
    (in_bom yes) (on_board yes) (fields_autoplaced)
    (uuid 4f58689c-0acb-4e43-88d9-e3b06a48b850)
    (property "Reference" "#PWR028" (id 0) (at 172.72 85.09 0)
      (effects (font (size 1.27 1.27)) hide)
    )
    (property "Value" "GND" (id 1) (at 172.72 83.82 0))
    (property "Footprint" "" (id 2) (at 172.72 78.74 0)
      (effects (font (size 1.27 1.27)) hide)
    )
    (property "Datasheet" "" (id 3) (at 172.72 78.74 0)
      (effects (font (size 1.27 1.27)) hide)
    )
    (pin "1" (uuid af787c42-97e4-4e50-847b-04da0e2ab542))
  )

  (symbol (lib_id "Device:C_Polarized_Small_US") (at 220.98 33.02 0) (unit 1)
    (in_bom yes) (on_board yes) (fields_autoplaced)
    (uuid 56560a13-c428-4a8a-b3e9-f1d952d98898)
    (property "Reference" "C5" (id 0) (at 223.52 31.3181 0)
      (effects (font (size 1.27 1.27)) (justify left))
    )
    (property "Value" "68u" (id 1) (at 223.52 33.8581 0)
      (effects (font (size 1.27 1.27)) (justify left))
    )
    (property "Footprint" "Capacitor_SMD:C_0603_1608Metric" (id 2) (at 220.98 33.02 0)
      (effects (font (size 1.27 1.27)) hide)
    )
    (property "Datasheet" "~" (id 3) (at 220.98 33.02 0)
      (effects (font (size 1.27 1.27)) hide)
    )
    (pin "1" (uuid fd874507-b0d1-410f-b9e0-3147975f7170))
    (pin "2" (uuid 4a79d8bb-2a33-4d2b-b7ed-027448d494a5))
  )

  (symbol (lib_id "power:GND") (at 22.987 77.343 0) (unit 1)
    (in_bom yes) (on_board yes) (fields_autoplaced)
    (uuid 65b4f227-456f-4747-bb84-be2f9fcf9a64)
    (property "Reference" "#PWR020" (id 0) (at 22.987 83.693 0)
      (effects (font (size 1.27 1.27)) hide)
    )
    (property "Value" "GND" (id 1) (at 22.987 82.423 0))
    (property "Footprint" "" (id 2) (at 22.987 77.343 0)
      (effects (font (size 1.27 1.27)) hide)
    )
    (property "Datasheet" "" (id 3) (at 22.987 77.343 0)
      (effects (font (size 1.27 1.27)) hide)
    )
    (pin "1" (uuid f0114169-a20b-4651-8b2d-2f8d5451fefd))
  )

  (symbol (lib_id "Device:C") (at 152.4 34.798 180) (unit 1)
    (in_bom yes) (on_board yes) (fields_autoplaced)
    (uuid 689733f5-761c-4543-9978-49a4ab9f001e)
    (property "Reference" "C3" (id 0) (at 148.59 36.0681 0)
      (effects (font (size 1.27 1.27)) (justify left))
    )
    (property "Value" "0.1u" (id 1) (at 148.59 33.5281 0)
      (effects (font (size 1.27 1.27)) (justify left))
    )
    (property "Footprint" "Capacitor_SMD:C_0603_1608Metric" (id 2) (at 151.4348 30.988 0)
      (effects (font (size 1.27 1.27)) hide)
    )
    (property "Datasheet" "~" (id 3) (at 152.4 34.798 0)
      (effects (font (size 1.27 1.27)) hide)
    )
    (pin "1" (uuid 9ea819e0-0cc0-4cad-9a53-a232562ec2c3))
    (pin "2" (uuid c50563d1-5a7b-44a0-8a19-f136239aa0cd))
  )

  (symbol (lib_id "Device:C") (at 193.04 86.36 90) (unit 1)
    (in_bom yes) (on_board yes) (fields_autoplaced)
    (uuid 6a3f8356-4735-4191-b396-ce22cd0f18f9)
    (property "Reference" "C4" (id 0) (at 193.04 78.74 90))
    (property "Value" "330pF" (id 1) (at 193.04 81.28 90))
    (property "Footprint" "Capacitor_SMD:C_0603_1608Metric" (id 2) (at 196.85 85.3948 0)
      (effects (font (size 1.27 1.27)) hide)
    )
    (property "Datasheet" "~" (id 3) (at 193.04 86.36 0)
      (effects (font (size 1.27 1.27)) hide)
    )
    (pin "1" (uuid acad4a2e-5540-400e-8f64-9e27c49d13e7))
    (pin "2" (uuid 1b2ecdbc-be10-45fa-99fa-9094ff6fdaa7))
  )

  (symbol (lib_id "Device:Battery_Cell") (at 100.33 49.53 0) (unit 1)
    (in_bom yes) (on_board yes) (fields_autoplaced)
    (uuid 741dbb48-3dad-4440-9d34-7b8f4d42191b)
    (property "Reference" "BT1" (id 0) (at 104.14 46.2279 0)
      (effects (font (size 1.27 1.27)) (justify left))
    )
    (property "Value" "Battery_Cell" (id 1) (at 104.14 48.7679 0)
      (effects (font (size 1.27 1.27)) (justify left))
    )
    (property "Footprint" "Battery:BatteryHolder_MPD_BH-18650-PC2" (id 2) (at 100.33 48.006 90)
      (effects (font (size 1.27 1.27)) hide)
    )
    (property "Datasheet" "~" (id 3) (at 100.33 48.006 90)
      (effects (font (size 1.27 1.27)) hide)
    )
    (pin "1" (uuid c3c3c5c6-2615-415c-afba-02ce3eae15d7))
    (pin "2" (uuid f53bfaad-0288-43ea-b17a-4e87b71c51eb))
  )

  (symbol (lib_id "power:GND") (at 152.4 29.718 180) (unit 1)
    (in_bom yes) (on_board yes) (fields_autoplaced)
    (uuid 75c01bc7-706d-4f93-82fe-17740200ac68)
    (property "Reference" "#PWR026" (id 0) (at 152.4 23.368 0)
      (effects (font (size 1.27 1.27)) hide)
    )
    (property "Value" "GND" (id 1) (at 152.4 24.638 0))
    (property "Footprint" "" (id 2) (at 152.4 29.718 0)
      (effects (font (size 1.27 1.27)) hide)
    )
    (property "Datasheet" "" (id 3) (at 152.4 29.718 0)
      (effects (font (size 1.27 1.27)) hide)
    )
    (pin "1" (uuid 63e5054c-900e-4031-9876-6b1f9a10d16e))
  )

  (symbol (lib_id "power:GND") (at 28.956 62.611 0) (unit 1)
    (in_bom yes) (on_board yes) (fields_autoplaced)
    (uuid 767faebd-6c65-4ce4-bab8-c083ac26d8f1)
    (property "Reference" "#PWR022" (id 0) (at 28.956 68.961 0)
      (effects (font (size 1.27 1.27)) hide)
    )
    (property "Value" "GND" (id 1) (at 28.956 67.691 0))
    (property "Footprint" "" (id 2) (at 28.956 62.611 0)
      (effects (font (size 1.27 1.27)) hide)
    )
    (property "Datasheet" "" (id 3) (at 28.956 62.611 0)
      (effects (font (size 1.27 1.27)) hide)
    )
    (pin "1" (uuid b54ea8f9-dd27-42d2-8334-eb3b18d2e637))
  )

  (symbol (lib_id "power:PWR_FLAG") (at 29.464 74.295 0) (unit 1)
    (in_bom yes) (on_board yes) (fields_autoplaced)
    (uuid 7bb590f4-0143-4b82-a3ed-5336c7abc66d)
    (property "Reference" "#FLG05" (id 0) (at 29.464 72.39 0)
      (effects (font (size 1.27 1.27)) hide)
    )
    (property "Value" "PWR_FLAG" (id 1) (at 29.464 68.58 0))
    (property "Footprint" "" (id 2) (at 29.464 74.295 0)
      (effects (font (size 1.27 1.27)) hide)
    )
    (property "Datasheet" "~" (id 3) (at 29.464 74.295 0)
      (effects (font (size 1.27 1.27)) hide)
    )
    (pin "1" (uuid b8aa1336-0e04-4947-ab03-9741f0512916))
  )

  (symbol (lib_id "power:GNDPWR") (at 23.241 63.119 0) (unit 1)
    (in_bom yes) (on_board yes) (fields_autoplaced)
    (uuid 85334d14-f717-48e0-82a5-9a9928027d28)
    (property "Reference" "#PWR021" (id 0) (at 23.241 68.199 0)
      (effects (font (size 1.27 1.27)) hide)
    )
    (property "Value" "GNDPWR" (id 1) (at 23.114 67.31 0))
    (property "Footprint" "" (id 2) (at 23.241 64.389 0)
      (effects (font (size 1.27 1.27)) hide)
    )
    (property "Datasheet" "" (id 3) (at 23.241 64.389 0)
      (effects (font (size 1.27 1.27)) hide)
    )
    (pin "1" (uuid 5c39e666-3618-4b68-913a-f87c1453deb6))
  )

  (symbol (lib_id "power:GND") (at 210.82 74.93 90) (unit 1)
    (in_bom yes) (on_board yes)
    (uuid 8ff3aa91-73bf-420b-8410-5be47d2ff9f5)
    (property "Reference" "#PWR030" (id 0) (at 217.17 74.93 0)
      (effects (font (size 1.27 1.27)) hide)
    )
    (property "Value" "GND" (id 1) (at 215.9 74.93 90))
    (property "Footprint" "" (id 2) (at 210.82 74.93 0)
      (effects (font (size 1.27 1.27)) hide)
    )
    (property "Datasheet" "" (id 3) (at 210.82 74.93 0)
      (effects (font (size 1.27 1.27)) hide)
    )
    (pin "1" (uuid 66604dd9-c820-4920-ab49-2c3a907d5220))
  )

  (symbol (lib_id "Device:C_Polarized_Small_US") (at 240.03 67.31 0) (unit 1)
    (in_bom yes) (on_board yes) (fields_autoplaced)
    (uuid 9082981b-ea55-464e-901d-40c95fa0b654)
    (property "Reference" "C7" (id 0) (at 242.57 65.6081 0)
      (effects (font (size 1.27 1.27)) (justify left))
    )
    (property "Value" "220u" (id 1) (at 242.57 68.1481 0)
      (effects (font (size 1.27 1.27)) (justify left))
    )
    (property "Footprint" "Capacitor_SMD:C_0603_1608Metric" (id 2) (at 240.03 67.31 0)
      (effects (font (size 1.27 1.27)) hide)
    )
    (property "Datasheet" "~" (id 3) (at 240.03 67.31 0)
      (effects (font (size 1.27 1.27)) hide)
    )
    (pin "1" (uuid 733b6f66-6e34-4ca5-8efe-8f89d44e1d86))
    (pin "2" (uuid 724f8a64-daa0-4c4f-99f7-7166c507322e))
  )

  (symbol (lib_id "power:GND") (at 240.03 72.39 0) (unit 1)
    (in_bom yes) (on_board yes) (fields_autoplaced)
    (uuid 9894ee8e-69c5-4422-be06-9a8e7f1d2446)
    (property "Reference" "#PWR032" (id 0) (at 240.03 78.74 0)
      (effects (font (size 1.27 1.27)) hide)
    )
    (property "Value" "GND" (id 1) (at 240.03 77.47 0))
    (property "Footprint" "" (id 2) (at 240.03 72.39 0)
      (effects (font (size 1.27 1.27)) hide)
    )
    (property "Datasheet" "" (id 3) (at 240.03 72.39 0)
      (effects (font (size 1.27 1.27)) hide)
    )
    (pin "1" (uuid 4586a6bd-4b43-41b9-8f67-d34ec02466f1))
  )

  (symbol (lib_id "Device:R") (at 193.04 76.2 270) (unit 1)
    (in_bom yes) (on_board yes) (fields_autoplaced)
    (uuid a1c89e67-4ab2-4306-8a77-711830faf8de)
    (property "Reference" "R4" (id 0) (at 193.04 69.85 90))
    (property "Value" "150k" (id 1) (at 193.04 72.39 90))
    (property "Footprint" "Resistor_SMD:R_0603_1608Metric" (id 2) (at 193.04 74.422 90)
      (effects (font (size 1.27 1.27)) hide)
    )
    (property "Datasheet" "~" (id 3) (at 193.04 76.2 0)
      (effects (font (size 1.27 1.27)) hide)
    )
    (pin "1" (uuid a91a8ca7-4be1-4998-b76f-a8570ce79992))
    (pin "2" (uuid 1e49d281-8623-462a-9687-8df9704c04d8))
  )

  (symbol (lib_id "AO3401A:AO3401A") (at 92.71 123.19 90) (mirror x) (unit 1)
    (in_bom yes) (on_board yes) (fields_autoplaced)
    (uuid d7a34f6a-64e4-4184-8b8e-74ea9a437afb)
    (property "Reference" "Q1" (id 0) (at 92.71 128.27 90))
    (property "Value" "AO3401A" (id 1) (at 92.71 130.81 90))
    (property "Footprint" "FootPrints:SOT23-3" (id 2) (at 92.71 123.19 0)
      (effects (font (size 1.27 1.27)) (justify left bottom) hide)
    )
    (property "Datasheet" "" (id 3) (at 92.71 123.19 0)
      (effects (font (size 1.27 1.27)) (justify left bottom) hide)
    )
    (pin "1" (uuid c083c486-b973-42d0-b821-adaa33b07eda))
    (pin "2" (uuid ebf88075-73e2-4b25-844b-28376450bdd6))
    (pin "3" (uuid 4bfc6338-2b8a-4c65-a6d6-dce3629de4d6))
  )

  (symbol (lib_id "Device:R") (at 204.47 41.91 0) (unit 1)
    (in_bom yes) (on_board yes) (fields_autoplaced)
    (uuid d7b09acc-1451-4909-857f-57af63cd1068)
    (property "Reference" "R5" (id 0) (at 207.01 40.6399 0)
      (effects (font (size 1.27 1.27)) (justify left))
    )
    (property "Value" "0.82" (id 1) (at 207.01 43.1799 0)
      (effects (font (size 1.27 1.27)) (justify left))
    )
    (property "Footprint" "Resistor_SMD:R_0603_1608Metric" (id 2) (at 202.692 41.91 90)
      (effects (font (size 1.27 1.27)) hide)
    )
    (property "Datasheet" "~" (id 3) (at 204.47 41.91 0)
      (effects (font (size 1.27 1.27)) hide)
    )
    (pin "1" (uuid 37e7f080-57c8-4362-a254-db66be6fe93d))
    (pin "2" (uuid 67d0d9bf-ee25-4c8b-98dd-4ffed043c168))
  )

  (symbol (lib_id "STPS745G:STPS745G") (at 204.47 67.31 90) (unit 1)
    (in_bom yes) (on_board yes) (fields_autoplaced)
    (uuid e3fb1acf-e6b4-48bc-a536-b10d43ce5997)
    (property "Reference" "D2" (id 0) (at 208.28 66.0399 90)
      (effects (font (size 1.27 1.27)) (justify right))
    )
    (property "Value" "STPS745G" (id 1) (at 208.28 68.5799 90)
      (effects (font (size 1.27 1.27)) (justify right))
    )
    (property "Footprint" "FootPrints:TO254P1543X460-3N" (id 2) (at 204.47 67.31 0)
      (effects (font (size 1.27 1.27)) (justify left bottom) hide)
    )
    (property "Datasheet" "" (id 3) (at 204.47 67.31 0)
      (effects (font (size 1.27 1.27)) (justify left bottom) hide)
    )
    (property "MANUFACTURER" "STMicroelectronics" (id 4) (at 204.47 67.31 0)
      (effects (font (size 1.27 1.27)) (justify left bottom) hide)
    )
    (pin "3" (uuid c94fae94-7ed1-494f-9925-084a2f253527))
    (pin "4" (uuid a8d04cd1-5d90-431b-87f6-5e787bc168d2))
  )

  (symbol (lib_id "MAX1627ESA:MAX1627ESA") (at 176.53 50.927 0) (unit 1)
    (in_bom yes) (on_board yes) (fields_autoplaced)
    (uuid e7866c3d-8d14-41fd-ad1d-f5e39b494b2a)
    (property "Reference" "U2" (id 0) (at 176.53 30.48 0))
    (property "Value" "MAX1627ESA" (id 1) (at 176.53 33.02 0))
    (property "Footprint" "SOIC127P600X175-8N" (id 2) (at 176.53 50.927 0)
      (effects (font (size 1.27 1.27)) (justify left bottom) hide)
    )
    (property "Datasheet" "" (id 3) (at 176.53 50.927 0)
      (effects (font (size 1.27 1.27)) (justify left bottom) hide)
    )
    (property "Manufacturer" "Maxim Integrated" (id 4) (at 176.53 50.927 0)
      (effects (font (size 1.27 1.27)) (justify left bottom) hide)
    )
    (property "Package" "SOIC127P600X175-8N" (id 5) (at 176.53 50.927 0)
      (effects (font (size 1.27 1.27)) (justify left bottom) hide)
    )
    (pin "1" (uuid 4b580885-b1e5-493c-9c13-956f18012ed7))
    (pin "2" (uuid 2d00d84a-99e4-4933-bce4-fb51122e6fc6))
    (pin "3" (uuid b319466e-06f1-4964-b670-4da5d235f7f6))
    (pin "4" (uuid 998445f6-30aa-4b8c-8252-ef09d9859ad2))
    (pin "5" (uuid 62a05204-6624-44b4-b7fc-0408573e6f8c))
    (pin "6" (uuid f76c7e27-fe60-4805-b38f-7a784f43497b))
    (pin "7" (uuid bc14e7dd-1253-40db-902d-ae2014efdfdd))
    (pin "8" (uuid a992da1d-8129-49f7-8886-720b5e5719bd))
  )

  (symbol (lib_id "power:GND") (at 71.12 113.03 0) (unit 1)
    (in_bom yes) (on_board yes) (fields_autoplaced)
    (uuid e8aeeb4d-a234-4e1b-9bf0-14d572293a92)
    (property "Reference" "#PWR025" (id 0) (at 71.12 119.38 0)
      (effects (font (size 1.27 1.27)) hide)
    )
    (property "Value" "GND" (id 1) (at 71.12 118.11 0))
    (property "Footprint" "" (id 2) (at 71.12 113.03 0)
      (effects (font (size 1.27 1.27)) hide)
    )
    (property "Datasheet" "" (id 3) (at 71.12 113.03 0)
      (effects (font (size 1.27 1.27)) hide)
    )
    (pin "1" (uuid 1265fbb6-f831-4d38-a184-a087df06fa49))
  )

  (symbol (lib_id "AO3401A:AO3401A") (at 208.153 54.61 0) (unit 1)
    (in_bom yes) (on_board yes) (fields_autoplaced)
    (uuid ea00c14e-560f-4503-b271-b0236c65a5b8)
    (property "Reference" "Q2" (id 0) (at 211.963 53.3399 0)
      (effects (font (size 1.27 1.27)) (justify left))
    )
    (property "Value" "AO3401A" (id 1) (at 211.963 55.8799 0)
      (effects (font (size 1.27 1.27)) (justify left))
    )
    (property "Footprint" "FootPrints:SOT23-3" (id 2) (at 208.153 54.61 0)
      (effects (font (size 1.27 1.27)) (justify left bottom) hide)
    )
    (property "Datasheet" "" (id 3) (at 208.153 54.61 0)
      (effects (font (size 1.27 1.27)) (justify left bottom) hide)
    )
    (pin "1" (uuid d10fc460-7f3d-48cc-be32-413e60f0b13c))
    (pin "2" (uuid 53a947c2-f9c1-4b0f-987b-d21a60c5a633))
    (pin "3" (uuid 46959cdf-3046-447b-a92c-05dfa061bc6f))
  )

  (symbol (lib_id "Device:R") (at 71.12 107.95 0) (unit 1)
    (in_bom yes) (on_board yes) (fields_autoplaced)
    (uuid ea372e81-8b28-411a-9c12-6e691d461399)
    (property "Reference" "R2" (id 0) (at 73.66 106.6799 0)
      (effects (font (size 1.27 1.27)) (justify left))
    )
    (property "Value" "10k" (id 1) (at 73.66 109.2199 0)
      (effects (font (size 1.27 1.27)) (justify left))
    )
    (property "Footprint" "Resistor_SMD:R_0603_1608Metric" (id 2) (at 69.342 107.95 90)
      (effects (font (size 1.27 1.27)) hide)
    )
    (property "Datasheet" "~" (id 3) (at 71.12 107.95 0)
      (effects (font (size 1.27 1.27)) hide)
    )
    (pin "1" (uuid 86517672-a312-4d96-a62d-d401c4f3f511))
    (pin "2" (uuid 4c814fe7-fbe2-4570-a363-581304414d73))
  )

  (symbol (lib_id "Device:C") (at 231.14 31.75 0) (unit 1)
    (in_bom yes) (on_board yes) (fields_autoplaced)
    (uuid ec08965e-2ff0-4c64-8ebf-88c4606edde4)
    (property "Reference" "C6" (id 0) (at 234.95 30.4799 0)
      (effects (font (size 1.27 1.27)) (justify left))
    )
    (property "Value" "0.47u" (id 1) (at 234.95 33.0199 0)
      (effects (font (size 1.27 1.27)) (justify left))
    )
    (property "Footprint" "Capacitor_SMD:C_0603_1608Metric" (id 2) (at 232.1052 35.56 0)
      (effects (font (size 1.27 1.27)) hide)
    )
    (property "Datasheet" "~" (id 3) (at 231.14 31.75 0)
      (effects (font (size 1.27 1.27)) hide)
    )
    (pin "1" (uuid 9a6053a9-344a-40da-b6ab-7635d73e10ac))
    (pin "2" (uuid a9f72e20-2e2d-47ae-ac4e-f336e6901bab))
  )

  (symbol (lib_id "Connector:TestPoint") (at 106.299 40.64 0) (unit 1)
    (in_bom yes) (on_board yes) (fields_autoplaced)
    (uuid f17f0890-0a20-48a3-bb2d-ffb6bfc5f1f1)
    (property "Reference" "TP2" (id 0) (at 108.458 36.0679 0)
      (effects (font (size 1.27 1.27)) (justify left))
    )
    (property "Value" "TestPoint" (id 1) (at 108.458 38.6079 0)
      (effects (font (size 1.27 1.27)) (justify left))
    )
    (property "Footprint" "TestPoint:TestPoint_Pad_D1.0mm" (id 2) (at 111.379 40.64 0)
      (effects (font (size 1.27 1.27)) hide)
    )
    (property "Datasheet" "~" (id 3) (at 111.379 40.64 0)
      (effects (font (size 1.27 1.27)) hide)
    )
    (pin "1" (uuid 4d927a26-a8ba-406b-a4bc-4dd77089ac17))
  )

  (symbol (lib_id "STPS745G:STPS745G") (at 100.33 99.06 0) (unit 1)
    (in_bom yes) (on_board yes) (fields_autoplaced)
    (uuid f205d1ef-3ec2-4153-92b9-77f602b37fac)
    (property "Reference" "D1" (id 0) (at 100.33 91.44 0))
    (property "Value" "STPS745G" (id 1) (at 100.33 93.98 0))
    (property "Footprint" "FootPrints:TO254P1543X460-3N" (id 2) (at 100.33 99.06 0)
      (effects (font (size 1.27 1.27)) (justify left bottom) hide)
    )
    (property "Datasheet" "" (id 3) (at 100.33 99.06 0)
      (effects (font (size 1.27 1.27)) (justify left bottom) hide)
    )
    (property "MANUFACTURER" "STMicroelectronics" (id 4) (at 100.33 99.06 0)
      (effects (font (size 1.27 1.27)) (justify left bottom) hide)
    )
    (pin "3" (uuid 8840f18c-6884-414e-85d5-1600774dab4d))
    (pin "4" (uuid 3189b42a-1bc4-44d2-800e-4c8f8d9beedb))
  )

  (symbol (lib_id "Battery_Management:MCP73831-2-OT") (at 63.5 43.18 0) (unit 1)
    (in_bom yes) (on_board yes) (fields_autoplaced)
    (uuid f4a5e0b0-6ef8-4743-b4aa-2fdbc77259e9)
    (property "Reference" "U1" (id 0) (at 65.5194 33.02 0)
      (effects (font (size 1.27 1.27)) (justify left))
    )
    (property "Value" "MCP73831-2-OT" (id 1) (at 65.5194 35.56 0)
      (effects (font (size 1.27 1.27)) (justify left))
    )
    (property "Footprint" "Package_TO_SOT_SMD:SOT-23-5" (id 2) (at 64.77 49.53 0)
      (effects (font (size 1.27 1.27) italic) (justify left) hide)
    )
    (property "Datasheet" "http://ww1.microchip.com/downloads/en/DeviceDoc/20001984g.pdf" (id 3) (at 59.69 44.45 0)
      (effects (font (size 1.27 1.27)) hide)
    )
    (pin "1" (uuid 44ab2738-42c8-4296-b189-ca4564aa7d7c))
    (pin "2" (uuid e1d450b0-2916-4841-8776-3e17cf7854c8))
    (pin "3" (uuid 5efffcd9-176c-469c-82a8-4a55bdb5c2b1))
    (pin "4" (uuid e98d3656-50df-4e6b-9039-38411cb35774))
    (pin "5" (uuid c66460e0-2a06-4c2c-8026-88255cee0393))
  )

  (symbol (lib_id "power:GND") (at 63.5 59.69 0) (unit 1)
    (in_bom yes) (on_board yes) (fields_autoplaced)
    (uuid f87f46df-975c-4d01-980f-55eed5a2a9a0)
    (property "Reference" "#PWR024" (id 0) (at 63.5 66.04 0)
      (effects (font (size 1.27 1.27)) hide)
    )
    (property "Value" "GND" (id 1) (at 63.5 64.77 0))
    (property "Footprint" "" (id 2) (at 63.5 59.69 0)
      (effects (font (size 1.27 1.27)) hide)
    )
    (property "Datasheet" "" (id 3) (at 63.5 59.69 0)
      (effects (font (size 1.27 1.27)) hide)
    )
    (pin "1" (uuid 4e19b084-8a06-42d1-b416-a1c610db94dc))
  )

  (sheet_instances
    (path "/" (page "1"))
  )

  (symbol_instances
    (path "/4efca0bc-f5ac-4d42-88aa-85d5f3543728"
      (reference "#FLG0101") (unit 1) (value "PWR_FLAG") (footprint "")
    )
    (path "/302a75b2-3274-4f6c-9953-e6b86bd05126"
      (reference "#FLG0102") (unit 1) (value "PWR_FLAG") (footprint "")
    )
    (path "/eb60a0ef-64c1-485d-bb63-050c79931441"
      (reference "#FLG0103") (unit 1) (value "PWR_FLAG") (footprint "")
    )
    (path "/75c01bc7-706d-4f93-82fe-17740200ac68"
      (reference "#PWR01") (unit 1) (value "GND") (footprint "")
    )
    (path "/082c7a7c-4d4f-4e2b-8444-b9b8f21ba1e8"
      (reference "#PWR02") (unit 1) (value "GND") (footprint "")
    )
    (path "/4f58689c-0acb-4e43-88d9-e3b06a48b850"
      (reference "#PWR03") (unit 1) (value "GND") (footprint "")
    )
    (path "/8ff3aa91-73bf-420b-8410-5be47d2ff9f5"
      (reference "#PWR04") (unit 1) (value "GND") (footprint "")
    )
    (path "/13926c31-60bd-408f-90df-58da53618d43"
      (reference "#PWR05") (unit 1) (value "GND") (footprint "")
    )
    (path "/9894ee8e-69c5-4422-be06-9a8e7f1d2446"
      (reference "#PWR06") (unit 1) (value "GND") (footprint "")
    )
    (path "/169f2fce-06b2-4370-9ee8-71cc966a0ae4"
      (reference "#PWR018") (unit 1) (value "GND") (footprint "")
    )
    (path "/f87f46df-975c-4d01-980f-55eed5a2a9a0"
      (reference "#PWR019") (unit 1) (value "GND") (footprint "")
    )
    (path "/e8aeeb4d-a234-4e1b-9bf0-14d572293a92"
      (reference "#PWR020") (unit 1) (value "GND") (footprint "")
    )
    (path "/7588d0ce-9ab3-4a1f-ac47-5bd09e2ac6f5"
      (reference "#PWR0101") (unit 1) (value "GND") (footprint "")
    )
    (path "/741dbb48-3dad-4440-9d34-7b8f4d42191b"
      (reference "BT1") (unit 1) (value "Battery_Cell") (footprint "Battery:BatteryHolder_MPD_BH-18650-PC2")
    )
    (path "/180b9f57-cc2a-4726-b2c2-5e99cf30e663"
      (reference "C1") (unit 1) (value "4.7u") (footprint "Capacitor_SMD:C_0402_1005Metric")
    )
    (path "/4644daa9-effe-4f77-8b42-beed7545b295"
      (reference "C2") (unit 1) (value "4.7k") (footprint "Capacitor_SMD:C_0402_1005Metric")
    )
    (path "/689733f5-761c-4543-9978-49a4ab9f001e"
      (reference "C3") (unit 1) (value "0.1u") (footprint "")
    )
    (path "/6a3f8356-4735-4191-b396-ce22cd0f18f9"
      (reference "C4") (unit 1) (value "330pF") (footprint "")
    )
    (path "/56560a13-c428-4a8a-b3e9-f1d952d98898"
      (reference "C5") (unit 1) (value "68u") (footprint "")
    )
    (path "/ec08965e-2ff0-4c64-8ebf-88c4606edde4"
      (reference "C6") (unit 1) (value "0.47u") (footprint "")
    )
    (path "/9082981b-ea55-464e-901d-40c95fa0b654"
      (reference "C7") (unit 1) (value "220u") (footprint "")
    )
    (path "/f205d1ef-3ec2-4153-92b9-77f602b37fac"
      (reference "D1") (unit 1) (value "STPS745G") (footprint "FootPrints:TO254P1543X460-3N")
    )
    (path "/e3fb1acf-e6b4-48bc-a536-b10d43ce5997"
      (reference "D2") (unit 1) (value "STPS745G") (footprint "FootPrints:TO254P1543X460-3N")
    )
    (path "/0d08cf93-997b-4436-821e-4d93f7c5d3a9"
      (reference "L1") (unit 1) (value "22uH") (footprint "")
    )
    (path "/d7a34f6a-64e4-4184-8b8e-74ea9a437afb"
      (reference "Q1") (unit 1) (value "AO3401A") (footprint "FootPrints:SOT23-3")
    )
    (path "/ea00c14e-560f-4503-b271-b0236c65a5b8"
      (reference "Q2") (unit 1) (value "AO3401A") (footprint "FootPrints:SOT23-3")
    )
    (path "/16965477-0b5e-467d-928c-8cd018e8eafd"
      (reference "R1") (unit 1) (value "10k") (footprint "Resistor_SMD:R_0402_1005Metric")
    )
    (path "/ea372e81-8b28-411a-9c12-6e691d461399"
      (reference "R2") (unit 1) (value "10k") (footprint "Resistor_SMD:R_0402_1005Metric")
    )
    (path "/28aa0230-b358-493e-b3f8-57d18dfbda4a"
      (reference "R3") (unit 1) (value "10k") (footprint "")
    )
    (path "/a1c89e67-4ab2-4306-8a77-711830faf8de"
      (reference "R4") (unit 1) (value "150k") (footprint "")
    )
    (path "/7c561988-1ec4-4640-8f9f-2db0f4a5048e"
      (reference "R5") (unit 1) (value "3k9") (footprint "")
    )
    (path "/d7b09acc-1451-4909-857f-57af63cd1068"
      (reference "R6") (unit 1) (value "0.82") (footprint "")
    )
    (path "/f4a5e0b0-6ef8-4743-b4aa-2fdbc77259e9"
      (reference "U1") (unit 1) (value "MCP73831-2-OT") (footprint "Package_TO_SOT_SMD:SOT-23-5")
    )
    (path "/9fa81b9e-9c31-44c8-bae5-ba1c5dc660f0"
      (reference "U2") (unit 1) (value "max1627esa+T") (footprint "21-0041B_8_MXM")
    )
  )
)
