(module Package_DFN_QFN:QFN-28_EP_5x5_Pitch0.5mm (layer F.Cu) (tedit 5CF91C2B)
  (attr smd)
  (fp_text reference U8 (at -2.54 3.47 -270) (layer F.SilkS)
    (effects (font (size 0.5 0.5) (thickness 0.1)))
  )
  (fp_text value TMC2209-LA (at 0 4.25) (layer F.Fab)
    (effects (font (size 0.5 0.5) (thickness 0.1)))
  )
  (fp_line (start -1.5 -2.5) (end -2.5 -1.5) (layer F.Fab) (width 0.15))
  (fp_line (start -2.5 -1.5) (end -2.5 2.5) (layer F.Fab) (width 0.15))
  (fp_line (start -2.5 2.5) (end 2.5 2.5) (layer F.Fab) (width 0.15))
  (fp_line (start 2.5 2.5) (end 2.5 -2.5) (layer F.Fab) (width 0.15))
  (fp_line (start 2.5 -2.5) (end -1.5 -2.5) (layer F.Fab) (width 0.15))
  (fp_line (start 2 -2.65) (end 2.65 -2.65) (layer F.SilkS) (width 0.12))
  (fp_line (start 2.65 -2.65) (end 2.65 -2) (layer F.SilkS) (width 0.12))
  (fp_line (start 2 2.65) (end 2.65 2.65) (layer F.SilkS) (width 0.12))
  (fp_line (start 2.65 2.65) (end 2.65 2) (layer F.SilkS) (width 0.12))
  (fp_line (start -2 2.65) (end -2.65 2.65) (layer F.SilkS) (width 0.12))
  (fp_line (start -2.65 2.65) (end -2.65 2) (layer F.SilkS) (width 0.12))
  (fp_line (start -2 -2.65) (end -2.7 -2.65) (layer F.SilkS) (width 0.12))
  (fp_line (start -2.95 -2.95) (end 2.95 -2.95) (layer F.CrtYd) (width 0.05))
  (fp_line (start 2.95 -2.95) (end 2.95 2.95) (layer F.CrtYd) (width 0.05))
  (fp_line (start 2.95 2.95) (end -2.95 2.95) (layer F.CrtYd) (width 0.05))
  (fp_line (start -2.95 2.95) (end -2.95 -2.95) (layer F.CrtYd) (width 0.05))
  (fp_circle (center -3.048 -3.048) (end -2.794 -2.794) (layer F.SilkS) (width 0.12))
  (pad 1 smd oval (at -2.45 -1.5 90) (size 0.25 0.7) (layers F.Cu F.Paste F.Mask))
  (pad 2 smd oval (at -2.45 -1 90) (size 0.25 0.7) (layers F.Cu F.Paste F.Mask))
  (pad 3 smd oval (at -2.45 -0.5 90) (size 0.25 0.7) (layers F.Cu F.Paste F.Mask))
  (pad 4 smd oval (at -2.45 0 90) (size 0.25 0.7) (layers F.Cu F.Paste F.Mask))
  (pad 5 smd oval (at -2.45 0.5 90) (size 0.25 0.7) (layers F.Cu F.Paste F.Mask))
  (pad 6 smd oval (at -2.45 1 90) (size 0.25 0.7) (layers F.Cu F.Paste F.Mask))
  (pad 7 smd oval (at -2.45 1.5 90) (size 0.25 0.7) (layers F.Cu F.Paste F.Mask))
  (pad 8 smd oval (at -1.5 2.45) (size 0.25 0.7) (layers F.Cu F.Paste F.Mask))
  (pad 9 smd oval (at -1 2.45) (size 0.25 0.7) (layers F.Cu F.Paste F.Mask))
  (pad 10 smd oval (at -0.5 2.45) (size 0.25 0.7) (layers F.Cu F.Paste F.Mask))
  (pad 11 smd oval (at 0 2.45) (size 0.25 0.7) (layers F.Cu F.Paste F.Mask))
  (pad 12 smd oval (at 0.5 2.45) (size 0.25 0.7) (layers F.Cu F.Paste F.Mask))
  (pad 13 smd oval (at 1 2.45) (size 0.25 0.7) (layers F.Cu F.Paste F.Mask))
  (pad 14 smd oval (at 1.5 2.45) (size 0.25 0.7) (layers F.Cu F.Paste F.Mask))
  (pad 15 smd oval (at 2.45 1.5 90) (size 0.25 0.7) (layers F.Cu F.Paste F.Mask))
  (pad 16 smd oval (at 2.45 1 90) (size 0.25 0.7) (layers F.Cu F.Paste F.Mask))
  (pad 17 smd oval (at 2.45 0.5 90) (size 0.25 0.7) (layers F.Cu F.Paste F.Mask))
  (pad 18 smd oval (at 2.45 0 90) (size 0.25 0.7) (layers F.Cu F.Paste F.Mask))
  (pad 19 smd oval (at 2.45 -0.5 90) (size 0.25 0.7) (layers F.Cu F.Paste F.Mask))
  (pad 20 smd oval (at 2.45 -1 90) (size 0.25 0.7) (layers F.Cu F.Paste F.Mask))
  (pad 21 smd oval (at 2.45 -1.5 90) (size 0.25 0.7) (layers F.Cu F.Paste F.Mask))
  (pad 22 smd oval (at 1.5 -2.45) (size 0.25 0.7) (layers F.Cu F.Paste F.Mask))
  (pad 23 smd oval (at 1 -2.45) (size 0.25 0.7) (layers F.Cu F.Paste F.Mask))
  (pad 24 smd oval (at 0.5 -2.45) (size 0.25 0.7) (layers F.Cu F.Paste F.Mask))
  (pad 25 smd oval (at 0 -2.45) (size 0.25 0.7) (layers F.Cu F.Paste F.Mask))
  (pad 26 smd oval (at -0.5 -2.45) (size 0.25 0.7) (layers F.Cu F.Paste F.Mask))
  (pad 27 smd oval (at -1 -2.45) (size 0.25 0.7) (layers F.Cu F.Paste F.Mask))
  (pad 28 smd oval (at -1.5 -2.45) (size 0.25 0.7) (layers F.Cu F.Paste F.Mask))
  (pad 29 smd rect (at -1.3875 -1.3875) (size 0.925 0.925) (layers F.Cu F.Paste F.Mask)
    (solder_paste_margin -0.025))
  (pad 29 smd rect (at -1.3875 -0.4625) (size 0.925 0.925) (layers F.Cu F.Paste F.Mask)
    (solder_paste_margin -0.025))
  (pad 29 smd rect (at -1.3875 0.4625) (size 0.925 0.925) (layers F.Cu F.Paste F.Mask)
    (solder_paste_margin -0.025))
  (pad 29 smd rect (at -1.3875 1.3875) (size 0.925 0.925) (layers F.Cu F.Paste F.Mask)
    (solder_paste_margin -0.025))
  (pad 29 smd rect (at -0.4625 -1.3875) (size 0.925 0.925) (layers F.Cu F.Paste F.Mask)
    (solder_paste_margin -0.025))
  (pad 29 smd rect (at -0.4625 -0.4625) (size 0.925 0.925) (layers F.Cu F.Paste F.Mask)
    (solder_paste_margin -0.025))
  (pad 29 smd rect (at -0.4625 0.4625) (size 0.925 0.925) (layers F.Cu F.Paste F.Mask)
    (solder_paste_margin -0.025))
  (pad 29 smd rect (at -0.4625 1.3875) (size 0.925 0.925) (layers F.Cu F.Paste F.Mask)
    (solder_paste_margin -0.025))
  (pad 29 smd rect (at 0.4625 -1.3875) (size 0.925 0.925) (layers F.Cu F.Paste F.Mask)
    (solder_paste_margin -0.025))
  (pad 29 smd rect (at 0.4625 -0.4625) (size 0.925 0.925) (layers F.Cu F.Paste F.Mask)
    (solder_paste_margin -0.025))
  (pad 29 smd rect (at 0.4625 0.4625) (size 0.925 0.925) (layers F.Cu F.Paste F.Mask)
    (solder_paste_margin -0.025))
  (pad 29 smd rect (at 0.4625 1.3875) (size 0.925 0.925) (layers F.Cu F.Paste F.Mask)
    (solder_paste_margin -0.025))
  (pad 29 smd rect (at 1.3875 -1.3875) (size 0.925 0.925) (layers F.Cu F.Paste F.Mask)
    (solder_paste_margin -0.025))
  (pad 29 smd rect (at 1.3875 -0.4625) (size 0.925 0.925) (layers F.Cu F.Paste F.Mask)
    (solder_paste_margin -0.025))
  (pad 29 smd rect (at 1.3875 0.4625) (size 0.925 0.925) (layers F.Cu F.Paste F.Mask)
    (solder_paste_margin -0.025))
  (pad 29 smd rect (at 1.3875 1.3875) (size 0.925 0.925) (layers F.Cu F.Paste F.Mask)
    (solder_paste_margin -0.025))
  (pad 29 thru_hole circle (at -1.3875 -1.3875) (size 0.4625 0.4625) (drill 0.23125) (layers *.Cu *.Mask)
    (zone_connect 2))
  (pad 29 thru_hole circle (at -1.3875 -0.4625) (size 0.4625 0.4625) (drill 0.23125) (layers *.Cu *.Mask)
    (zone_connect 2))
  (pad 29 thru_hole circle (at -1.3875 0.4625) (size 0.4625 0.4625) (drill 0.23125) (layers *.Cu *.Mask)
    (zone_connect 2))
  (pad 29 thru_hole circle (at -1.3875 1.3875) (size 0.4625 0.4625) (drill 0.23125) (layers *.Cu *.Mask)
    (zone_connect 2))
  (pad 29 thru_hole circle (at -0.4625 -1.3875) (size 0.4625 0.4625) (drill 0.23125) (layers *.Cu *.Mask)
    (zone_connect 2))
  (pad 29 thru_hole circle (at -0.4625 -0.4625) (size 0.4625 0.4625) (drill 0.23125) (layers *.Cu *.Mask)
    (zone_connect 2))
  (pad 29 thru_hole circle (at -0.4625 0.4625) (size 0.4625 0.4625) (drill 0.23125) (layers *.Cu *.Mask)
    (zone_connect 2))
  (pad 29 thru_hole circle (at -0.4625 1.3875) (size 0.4625 0.4625) (drill 0.23125) (layers *.Cu *.Mask)
    (zone_connect 2))
  (pad 29 thru_hole circle (at 0.4625 -1.3875) (size 0.4625 0.4625) (drill 0.23125) (layers *.Cu *.Mask)
    (zone_connect 2))
  (pad 29 thru_hole circle (at 0.4625 -0.4625) (size 0.4625 0.4625) (drill 0.23125) (layers *.Cu *.Mask)
    (zone_connect 2))
  (pad 29 thru_hole circle (at 0.4625 0.4625) (size 0.4625 0.4625) (drill 0.23125) (layers *.Cu *.Mask)
    (zone_connect 2))
  (pad 29 thru_hole circle (at 0.4625 1.3875) (size 0.4625 0.4625) (drill 0.23125) (layers *.Cu *.Mask)
    (zone_connect 2))
  (pad 29 thru_hole circle (at 1.3875 -1.3875) (size 0.4625 0.4625) (drill 0.23125) (layers *.Cu *.Mask)
    (zone_connect 2))
  (pad 29 thru_hole circle (at 1.3875 -0.4625) (size 0.4625 0.4625) (drill 0.23125) (layers *.Cu *.Mask)
    (zone_connect 2))
  (pad 29 thru_hole circle (at 1.3875 0.4625) (size 0.4625 0.4625) (drill 0.23125) (layers *.Cu *.Mask)
    (zone_connect 2))
  (pad 29 thru_hole circle (at 1.3875 1.3875) (size 0.4625 0.4625) (drill 0.23125) (layers *.Cu *.Mask)
    (zone_connect 2))
  (model ${KISYS3DMOD}/Package_DFN_QFN.3dshapes/QFN-28-1EP_5x5mm_P0.5mm_EP3.35x3.35mm.step
    (at (xyz 0 0 0))
    (scale (xyz 1 1 1))
    (rotate (xyz 0 0 0))
  )
)
