%TF.GenerationSoftware,KiCad,Pcbnew,(6.0.2)*%
%TF.CreationDate,2022-04-18T19:34:31+02:00*%
%TF.ProjectId,main,6d61696e-2e6b-4696-9361-645f70636258,rev?*%
%TF.SameCoordinates,Original*%
%TF.FileFunction,Paste,Bot*%
%TF.FilePolarity,Positive*%
%FSLAX46Y46*%
G04 Gerber Fmt 4.6, Leading zero omitted, Abs format (unit mm)*
G04 Created by KiCad (PCBNEW (6.0.2)) date 2022-04-18 19:34:31*
%MOMM*%
%LPD*%
G01*
G04 APERTURE LIST*
%ADD10R,0.600000X1.550000*%
G04 APERTURE END LIST*
D10*
%TO.C,U2*%
X148565000Y-79700000D03*
X148565000Y-85100000D03*
X147295000Y-79700000D03*
X149835000Y-79700000D03*
X151105000Y-79700000D03*
X147295000Y-85100000D03*
X149835000Y-85100000D03*
X151105000Y-85100000D03*
%TD*%
M02*
